[2014-12-22 12:56:23.813] [INFO] audit - audit trail started
[2014-12-22 12:57:04.606] [INFO] audit - audit trail started
[2014-12-22 14:41:43.820] [INFO] audit - audit trail started
[2014-12-22 14:43:35.526] [INFO] audit - audit trail - system error -{"code":"ETIMEDOUT","errno":"ETIMEDOUT","syscall":"connect"}
[2014-12-22 14:44:11.138] [INFO] audit - audit trail - system error -{"code":"ETIMEDOUT","errno":"ETIMEDOUT","syscall":"connect"}
[2014-12-22 14:47:07.761] [INFO] audit - audit trail - system error -{"code":"ETIMEDOUT","errno":"ETIMEDOUT","syscall":"connect"}
[2014-12-22 14:47:42.738] [INFO] audit - audit trail - system error -{"code":"ETIMEDOUT","errno":"ETIMEDOUT","syscall":"connect"}
[2014-12-22 14:52:01.821] [INFO] audit - audit trail - system error -{"code":"ETIMEDOUT","errno":"ETIMEDOUT","syscall":"connect"}
[2014-12-22 14:55:50.793] [INFO] audit - audit trail - system error -{"code":"ETIMEDOUT","errno":"ETIMEDOUT","syscall":"connect"}
[2014-12-22 14:56:28.291] [INFO] audit - audit trail - system error -{"code":"ETIMEDOUT","errno":"ETIMEDOUT","syscall":"connect"}
[2014-12-22 16:04:55.993] [INFO] audit - audit trail - system error -{"code":"ETIMEDOUT","errno":"ETIMEDOUT","syscall":"connect"}
[2014-12-22 16:12:23.650] [INFO] audit - audit trail - system error -{"code":"ETIMEDOUT","errno":"ETIMEDOUT","syscall":"connect"}
[2014-12-22 16:40:12.252] [INFO] audit - audit trail - system error -{"code":"ETIMEDOUT","errno":"ETIMEDOUT","syscall":"connect"}
[2014-12-22 16:41:13.998] [INFO] audit - audit trail - system error -{"code":"ETIMEDOUT","errno":"ETIMEDOUT","syscall":"connect"}
[2014-12-22 16:41:29.478] [INFO] audit - audit trail - system error -{"code":"ETIMEDOUT","errno":"ETIMEDOUT","syscall":"connect"}
[2014-12-22 16:42:15.345] [INFO] audit - audit trail - system error -{"code":"ETIMEDOUT","errno":"ETIMEDOUT","syscall":"connect"}
[2014-12-22 16:48:13.545] [INFO] audit - audit trail - system error -{"code":"ETIMEDOUT","errno":"ETIMEDOUT","syscall":"connect"}
[2014-12-22 16:55:48.535] [INFO] audit - audit trail - system error -{"code":"ETIMEDOUT","errno":"ETIMEDOUT","syscall":"connect"}
[2014-12-22 16:57:57.820] [INFO] audit - audit trail - system error -{"code":"ETIMEDOUT","errno":"ETIMEDOUT","syscall":"connect"}
[2014-12-22 18:01:24.533] [INFO] audit - audit trail started
[2014-12-22 18:40:19.040] [INFO] audit - audit trail - system error -{"code":"ETIMEDOUT","errno":"ETIMEDOUT","syscall":"connect"}
[2014-12-22 18:48:25.492] [INFO] audit - audit trail - system error -{"code":"ETIMEDOUT","errno":"ETIMEDOUT","syscall":"connect"}
[2014-12-22 18:48:49.645] [INFO] audit - audit trail - system error -{"code":"ETIMEDOUT","errno":"ETIMEDOUT","syscall":"connect"}
[2014-12-22 18:50:26.411] [INFO] audit - audit trail - system error -{"code":"ETIMEDOUT","errno":"ETIMEDOUT","syscall":"connect"}
[2014-12-22 18:51:04.520] [INFO] audit - audit trail - system error -{"code":"ETIMEDOUT","errno":"ETIMEDOUT","syscall":"connect"}
[2014-12-22 18:51:53.299] [INFO] audit - audit trail - system error -{"code":"ETIMEDOUT","errno":"ETIMEDOUT","syscall":"connect"}
[2014-12-22 18:52:03.962] [INFO] audit - audit trail - system error -{"code":"ETIMEDOUT","errno":"ETIMEDOUT","syscall":"connect"}
[2014-12-22 18:52:13.678] [INFO] audit - audit trail - system error -{"code":"ETIMEDOUT","errno":"ETIMEDOUT","syscall":"connect"}
[2014-12-22 19:00:38.772] [INFO] audit - audit trail - system error -{"code":"ETIMEDOUT","errno":"ETIMEDOUT","syscall":"connect"}
[2014-12-22 19:01:06.873] [INFO] audit - audit trail - system error -{"code":"ETIMEDOUT","errno":"ETIMEDOUT","syscall":"connect"}
[2014-12-22 19:01:22.087] [INFO] audit - audit trail - system error -{"code":"ETIMEDOUT","errno":"ETIMEDOUT","syscall":"connect"}
[2014-12-22 19:01:31.970] [INFO] audit - audit trail - system error -{"code":"ETIMEDOUT","errno":"ETIMEDOUT","syscall":"connect"}
[2014-12-23 10:15:32.894] [INFO] audit - audit trail started
[2014-12-23 11:45:06.800] [INFO] audit - audit trail - system error -{"code":"ETIMEDOUT","errno":"ETIMEDOUT","syscall":"connect"}
[2014-12-23 11:48:22.862] [INFO] audit - audit trail - system error -{"code":"ETIMEDOUT","errno":"ETIMEDOUT","syscall":"connect"}
[2014-12-23 11:51:44.802] [INFO] audit - audit trail - system error -{"code":"ETIMEDOUT","errno":"ETIMEDOUT","syscall":"connect"}
[2014-12-23 11:53:29.310] [INFO] audit - audit trail - system error -{"code":"ETIMEDOUT","errno":"ETIMEDOUT","syscall":"connect"}
[2014-12-23 11:55:08.951] [INFO] audit - audit trail started
[2014-12-23 12:00:53.029] [INFO] audit - audit trail - system error -{"code":"ETIMEDOUT","errno":"ETIMEDOUT","syscall":"connect"}
[2014-12-23 12:00:53.168] [INFO] audit - audit trail - system error -{"code":"ETIMEDOUT","errno":"ETIMEDOUT","syscall":"connect"}
[2014-12-23 12:11:53.217] [INFO] audit - audit trail started
[2014-12-23 12:12:36.419] [INFO] audit - audit trail - system error -{"code":"ETIMEDOUT","errno":"ETIMEDOUT","syscall":"connect"}
[2014-12-23 12:13:03.761] [INFO] audit - audit trail - system error -{"code":"ETIMEDOUT","errno":"ETIMEDOUT","syscall":"connect"}
[2014-12-23 12:13:09.194] [INFO] audit - audit trail - system error -{"code":"ETIMEDOUT","errno":"ETIMEDOUT","syscall":"connect"}
[2014-12-23 12:13:21.580] [INFO] audit - audit trail - system error -{"code":"ETIMEDOUT","errno":"ETIMEDOUT","syscall":"connect"}
[2014-12-23 12:13:32.139] [INFO] audit - audit trail - system error -{"code":"ETIMEDOUT","errno":"ETIMEDOUT","syscall":"connect"}
[2014-12-23 12:13:48.346] [INFO] audit - audit trail - system error -{"code":"ETIMEDOUT","errno":"ETIMEDOUT","syscall":"connect"}
[2014-12-23 12:14:01.415] [INFO] audit - audit trail - system error -{"code":"ETIMEDOUT","errno":"ETIMEDOUT","syscall":"connect"}
[2014-12-23 12:14:10.550] [INFO] audit - audit trail - system error -{"code":"ETIMEDOUT","errno":"ETIMEDOUT","syscall":"connect"}
[2014-12-23 12:14:19.708] [INFO] audit - audit trail - system error -{"code":"ETIMEDOUT","errno":"ETIMEDOUT","syscall":"connect"}
[2014-12-23 12:14:24.961] [INFO] audit - audit trail - system error -{"code":"ETIMEDOUT","errno":"ETIMEDOUT","syscall":"connect"}
[2014-12-23 12:16:00.949] [INFO] audit - audit trail - system error -{"code":"ETIMEDOUT","errno":"ETIMEDOUT","syscall":"connect"}
[2014-12-23 12:17:04.030] [INFO] audit - audit trail - system error -{"code":"ETIMEDOUT","errno":"ETIMEDOUT","syscall":"connect"}
[2014-12-23 12:17:55.759] [INFO] audit - audit trail - system error -{"code":"ETIMEDOUT","errno":"ETIMEDOUT","syscall":"connect"}
[2014-12-23 12:19:16.930] [INFO] audit - audit trail - system error -{"code":"ETIMEDOUT","errno":"ETIMEDOUT","syscall":"connect"}
[2014-12-23 12:19:48.647] [INFO] audit - audit trail - system error -{"code":"ETIMEDOUT","errno":"ETIMEDOUT","syscall":"connect"}
[2014-12-23 12:22:18.360] [INFO] audit - audit trail - system error -{"code":"ETIMEDOUT","errno":"ETIMEDOUT","syscall":"connect"}
[2014-12-23 12:31:50.772] [INFO] audit - audit trail - system error -{"code":"ETIMEDOUT","errno":"ETIMEDOUT","syscall":"connect"}
[2014-12-23 12:58:27.629] [INFO] audit - audit trail - system error -{"code":"ETIMEDOUT","errno":"ETIMEDOUT","syscall":"connect"}
[2014-12-23 12:59:15.795] [INFO] audit - audit trail started
[2014-12-23 13:11:35.366] [INFO] audit - audit trail started
[2014-12-23 13:43:59.493] [INFO] audit - audit trail started
[2014-12-23 14:09:14.079] [INFO] audit - audit trail - system error -{"code":"ETIMEDOUT","errno":"ETIMEDOUT","syscall":"connect"}
[2014-12-23 14:09:38.084] [INFO] audit - audit trail - system error -{"code":"ETIMEDOUT","errno":"ETIMEDOUT","syscall":"connect"}
[2014-12-23 14:21:00.967] [INFO] audit - audit trail - system error -{"code":"ETIMEDOUT","errno":"ETIMEDOUT","syscall":"connect"}
[2014-12-23 14:26:53.347] [INFO] audit - audit trail started
[2014-12-23 14:52:06.393] [INFO] audit - audit trail - system error -{"code":"ETIMEDOUT","errno":"ETIMEDOUT","syscall":"connect"}
[2014-12-23 14:52:19.873] [INFO] audit - audit trail - system error -{"code":"ETIMEDOUT","errno":"ETIMEDOUT","syscall":"connect"}
[2014-12-23 14:55:32.785] [INFO] audit - audit trail - system error -{"code":"ETIMEDOUT","errno":"ETIMEDOUT","syscall":"connect"}
[2014-12-23 15:39:02.495] [INFO] audit - audit trail started
[2014-12-23 15:43:04.028] [INFO] audit - audit trail started
[2014-12-23 15:58:56.038] [INFO] audit - audit trail started
[2014-12-23 16:00:11.450] [INFO] audit - audit trail started
[2014-12-23 16:13:53.132] [INFO] audit - audit trail started
[2014-12-23 16:14:56.059] [INFO] audit - audit trail started
[2014-12-23 16:56:28.296] [INFO] audit - audit trail started
[2014-12-23 17:26:52.959] [INFO] audit - audit trail started
[2014-12-23 17:28:02.371] [INFO] audit - audit trail started
[2014-12-23 17:31:57.208] [INFO] audit - audit trail started
[2014-12-23 17:32:09.510] [INFO] audit - audit trail started
[2014-12-23 17:33:19.221] [INFO] audit - audit trail started
[2014-12-23 17:34:31.127] [INFO] audit - audit trail started
[2014-12-23 17:35:02.764] [INFO] audit - audit trail started
[2014-12-23 17:36:01.620] [INFO] audit - audit trail started
[2014-12-23 17:55:35.353] [INFO] audit - audit trail started
[2014-12-23 18:02:52.229] [INFO] audit - audit trail started
[2014-12-23 18:03:21.295] [INFO] audit - audit trail started
[2014-12-23 18:10:45.350] [INFO] audit - audit trail started
[2014-12-23 18:11:54.111] [INFO] audit - audit trail - system error -{"code":"ETIMEDOUT","errno":"ETIMEDOUT","syscall":"connect"}
[2014-12-23 18:13:38.800] [INFO] audit - audit trail started
[2014-12-23 18:24:53.021] [INFO] audit - audit trail started
[2014-12-24 11:13:43.832] [INFO] audit - audit trail started
[2014-12-24 11:29:26.589] [INFO] audit - audit trail - system error -{"code":"ETIMEDOUT","errno":"ETIMEDOUT","syscall":"connect"}
[2014-12-24 11:39:30.311] [INFO] audit - audit trail started
[2014-12-24 11:41:10.330] [INFO] audit - audit trail - system error -{"code":"ETIMEDOUT","errno":"ETIMEDOUT","syscall":"connect"}
[2014-12-24 12:11:15.657] [INFO] audit - audit trail - system error -{"code":"ETIMEDOUT","errno":"ETIMEDOUT","syscall":"connect"}
[2014-12-24 14:30:30.792] [INFO] audit - audit trail started
[2014-12-24 14:38:36.739] [INFO] audit - audit trail - system error -{"code":"ETIMEDOUT","errno":"ETIMEDOUT","syscall":"connect"}
[2014-12-24 14:51:51.625] [INFO] audit - audit trail - system error -{"code":"ETIMEDOUT","errno":"ETIMEDOUT","syscall":"connect"}
[2014-12-24 14:56:05.635] [INFO] audit - audit trail - system error -{"code":"ETIMEDOUT","errno":"ETIMEDOUT","syscall":"connect"}
[2014-12-24 15:17:46.468] [INFO] audit - audit trail started
[2014-12-24 15:23:19.113] [INFO] audit - audit trail started
[2014-12-24 17:21:40.855] [INFO] audit - audit trail - system error -{"code":"ETIMEDOUT","errno":"ETIMEDOUT","syscall":"connect"}
[2014-12-24 17:22:15.145] [INFO] audit - audit trail - system error -{"code":"ETIMEDOUT","errno":"ETIMEDOUT","syscall":"connect"}
[2014-12-24 19:19:23.976] [INFO] audit - audit trail - system error -{"code":"ETIMEDOUT","errno":"ETIMEDOUT","syscall":"connect"}
[2014-12-24 19:20:48.307] [INFO] audit - audit trail - system error -{"code":"ETIMEDOUT","errno":"ETIMEDOUT","syscall":"connect"}
[2014-12-24 19:20:55.288] [INFO] audit - audit trail - system error -{"code":"ETIMEDOUT","errno":"ETIMEDOUT","syscall":"connect"}
[2014-12-24 19:21:47.276] [INFO] audit - audit trail started
[2014-12-24 19:22:18.250] [INFO] audit - audit trail - system error -{"code":"ETIMEDOUT","errno":"ETIMEDOUT","syscall":"connect"}
[2014-12-24 19:22:26.624] [INFO] audit - audit trail - system error -{"code":"ETIMEDOUT","errno":"ETIMEDOUT","syscall":"connect"}
[2014-12-26 11:00:02.695] [INFO] audit - audit trail started
[2014-12-26 11:33:13.423] [INFO] audit - audit trail - system error -{"code":"ETIMEDOUT","errno":"ETIMEDOUT","syscall":"connect"}
[2014-12-26 11:37:44.464] [INFO] audit - audit trail - system error -{"code":"ETIMEDOUT","errno":"ETIMEDOUT","syscall":"connect"}
[2014-12-26 11:52:02.468] [INFO] audit - audit trail - system error -{"code":"ETIMEDOUT","errno":"ETIMEDOUT","syscall":"connect"}
[2014-12-26 12:01:00.739] [INFO] audit - audit trail - system error -{"code":"ETIMEDOUT","errno":"ETIMEDOUT","syscall":"connect"}
[2014-12-26 12:01:08.533] [INFO] audit - audit trail - system error -{"code":"ETIMEDOUT","errno":"ETIMEDOUT","syscall":"connect"}
[2014-12-26 12:12:33.280] [INFO] audit - audit trail started
[2014-12-26 12:25:12.238] [INFO] audit - audit trail - system error -{"code":"ETIMEDOUT","errno":"ETIMEDOUT","syscall":"connect"}
[2014-12-26 15:27:46.249] [INFO] audit - audit trail started
[2014-12-26 15:31:53.535] [INFO] audit - audit trail - system error -{"code":"ETIMEDOUT","errno":"ETIMEDOUT","syscall":"connect"}
[2014-12-26 15:51:38.313] [INFO] audit - audit trail - system error -{"code":"ETIMEDOUT","errno":"ETIMEDOUT","syscall":"connect"}
[2014-12-26 15:52:03.397] [INFO] audit - audit trail - system error -{"code":"ETIMEDOUT","errno":"ETIMEDOUT","syscall":"connect"}
[2014-12-26 15:52:19.180] [INFO] audit - audit trail - system error -{"code":"ETIMEDOUT","errno":"ETIMEDOUT","syscall":"connect"}
[2014-12-26 16:37:06.870] [INFO] audit - audit trail - system error -{"code":"ETIMEDOUT","errno":"ETIMEDOUT","syscall":"connect"}
[2014-12-26 16:37:48.765] [INFO] audit - audit trail - system error -{"code":"ETIMEDOUT","errno":"ETIMEDOUT","syscall":"connect"}
[2014-12-26 16:52:45.528] [INFO] audit - audit trail - system error -{"code":"ETIMEDOUT","errno":"ETIMEDOUT","syscall":"connect"}
[2014-12-26 16:53:24.346] [INFO] audit - audit trail - system error -{"code":"ETIMEDOUT","errno":"ETIMEDOUT","syscall":"connect"}
[2014-12-26 16:56:26.415] [INFO] audit - audit trail - system error -{"code":"ETIMEDOUT","errno":"ETIMEDOUT","syscall":"connect"}
[2014-12-26 18:13:06.636] [INFO] audit - audit trail started
[2015-02-23 15:28:46.238] [INFO] audit - audit trail started
[2015-02-23 15:30:26.362] [INFO] audit - audit trail started
[2015-02-23 15:36:25.799] [INFO] audit - audit trail started
[2015-02-23 15:36:47.068] [INFO] audit - audit trail started
[2015-02-23 15:52:19.677] [INFO] audit - audit trail started
[2015-02-23 15:53:25.193] [INFO] audit - audit trail started
[2015-02-23 17:19:25.090] [INFO] audit - audit trail started
[2015-02-23 17:20:55.557] [INFO] audit - audit trail started
[2015-02-23 17:22:22.447] [INFO] audit - audit trail started
[2015-02-23 17:25:58.075] [INFO] audit - audit trail started
[2015-02-23 17:26:34.627] [INFO] audit - audit trail started
[2015-02-23 17:55:25.221] [INFO] audit - audit trail started
[2015-02-23 17:59:26.208] [INFO] audit - audit trail started
[2015-02-23 18:33:15.548] [INFO] audit - audit trail started
[2015-02-23 23:22:46.620] [INFO] audit - audit trail started
[2015-02-24 19:32:52.717] [INFO] audit - audit trail started
[2015-02-24 19:34:53.321] [INFO] audit - audit trail started
[2015-02-24 23:48:55.743] [INFO] audit - audit trail started
[2015-02-25 00:38:51.763] [INFO] audit - audit trail started
[2015-02-25 11:39:42.674] [INFO] audit - audit trail started
[2015-02-25 12:20:08.417] [INFO] audit - audit trail started
[2015-02-25 12:41:33.556] [INFO] audit - audit trail started
[2015-02-25 23:34:20.509] [INFO] audit - audit trail started
[2015-02-26 00:04:42.764] [INFO] audit - audit trail started
[2015-02-26 11:35:05.640] [INFO] audit - audit trail started
[2015-02-27 16:52:40.712] [INFO] audit - audit trail started
[2015-02-27 17:57:53.105] [INFO] audit - audit trail started
[2015-03-03 00:11:41.780] [INFO] audit - audit trail started
[2015-03-06 12:51:50.651] [INFO] audit - audit trail started
[2015-03-06 15:51:54.493] [INFO] audit - audit trail started
[2015-03-16 13:03:57.904] [INFO] audit - audit trail started
[2015-03-16 13:15:55.359] [INFO] audit - audit trail started
[2015-03-16 16:02:06.546] [INFO] audit - audit trail started
[2015-03-17 11:42:35.488] [INFO] audit - audit trail started
[2015-03-17 12:15:17.519] [INFO] audit - audit trail started
[2015-03-17 15:11:24.717] [INFO] audit - audit trail started
[2015-03-17 15:12:04.996] [INFO] audit - audit trail started
[2015-03-17 15:28:07.694] [INFO] audit - audit trail started
[2015-03-17 15:28:28.464] [INFO] audit - audit trail started
[2015-03-18 11:37:30.237] [INFO] audit - audit trail started
[2015-03-18 12:45:50.131] [INFO] audit - audit trail started
[2015-03-18 13:10:57.045] [INFO] audit - audit trail started
[2015-03-18 13:49:36.461] [INFO] audit - audit trail started
[2015-03-19 12:24:43.231] [INFO] audit - audit trail started
[2015-03-19 12:51:10.436] [INFO] audit - audit trail started
[2015-03-19 13:10:58.052] [INFO] audit - audit trail started
[2015-03-19 18:41:16.168] [INFO] audit - audit trail started
[2015-03-19 19:02:23.050] [INFO] audit - audit trail started
[2015-03-19 20:42:07.019] [INFO] audit - audit trail started
[2015-03-19 20:42:20.807] [INFO] audit - audit trail started
[2015-03-20 11:55:45.498] [INFO] audit - audit trail started
[2015-03-20 13:48:13.625] [INFO] audit - audit trail started
[2015-03-20 14:48:15.316] [INFO] audit - audit trail started
[2015-03-20 14:55:52.637] [INFO] audit - audit trail started
[2015-03-20 16:27:44.681] [INFO] audit - audit trail started
[2015-03-20 17:05:50.969] [INFO] audit - audit trail started
[2015-03-20 17:46:22.325] [INFO] audit - audit trail started
[2015-03-20 17:47:39.539] [INFO] audit - audit trail started
[2015-03-20 17:50:00.276] [INFO] audit - audit trail started
[2015-03-20 17:55:45.688] [INFO] audit - audit trail started
[2015-03-20 18:52:53.648] [INFO] audit - audit trail started
[2015-03-20 18:56:13.021] [INFO] audit - audit trail started
[2015-03-20 19:09:04.207] [INFO] audit - audit trail started
[2015-03-21 11:55:27.935] [INFO] audit - audit trail started
[2015-03-21 12:11:51.889] [INFO] audit - audit trail started
[2015-03-21 12:29:04.810] [INFO] audit - audit trail started
[2015-03-21 12:39:29.812] [INFO] audit - audit trail started
[2015-03-21 18:25:28.265] [INFO] audit - audit trail started
[2015-03-21 18:29:46.361] [INFO] audit - audit trail started
[2015-03-21 18:32:41.327] [INFO] audit - audit trail started
[2015-03-21 18:37:46.547] [INFO] audit - audit trail started
[2015-03-21 18:41:02.894] [INFO] audit - audit trail started
[2015-03-21 19:04:36.469] [INFO] audit - audit trail started
[2015-03-21 19:07:59.617] [INFO] audit - audit trail started
[2015-03-21 19:13:07.534] [INFO] audit - audit trail started
[2015-03-21 19:13:57.009] [INFO] audit - audit trail started
[2015-03-21 19:15:49.570] [INFO] audit - audit trail started
[2015-03-21 19:15:59.846] [INFO] audit - audit trail started
[2015-03-21 19:18:49.132] [INFO] audit - audit trail started
[2015-03-21 19:53:15.988] [INFO] audit - audit trail started
[2015-03-21 19:57:09.620] [INFO] audit - audit trail started
[2015-03-21 20:10:49.994] [INFO] audit - audit trail started
[2015-03-21 20:14:58.553] [INFO] audit - audit trail started
[2015-03-21 20:15:53.295] [INFO] audit - audit trail started
[2015-03-21 20:17:45.048] [INFO] audit - audit trail started
[2015-03-21 20:18:48.233] [INFO] audit - audit trail started
[2015-03-21 20:23:08.996] [INFO] audit - audit trail started
[2015-03-21 20:27:48.405] [INFO] audit - audit trail started
[2015-03-21 20:29:01.624] [INFO] audit - audit trail started
[2015-03-21 20:29:33.698] [INFO] audit - audit trail started
[2015-03-21 20:30:13.412] [INFO] audit - audit trail started
[2015-03-21 20:31:09.374] [INFO] audit - audit trail started
[2015-03-21 20:32:00.759] [INFO] audit - audit trail started
[2015-03-21 20:34:24.073] [INFO] audit - audit trail started
[2015-03-21 20:37:27.085] [INFO] audit - audit trail started
[2015-03-21 20:38:22.741] [INFO] audit - audit trail started
[2015-03-21 20:39:20.500] [INFO] audit - audit trail started
[2015-03-21 20:42:50.879] [INFO] audit - audit trail started
[2015-03-21 20:44:31.078] [INFO] audit - audit trail started
[2015-03-21 20:45:22.559] [INFO] audit - audit trail started
[2015-03-21 20:46:49.288] [INFO] audit - audit trail started
[2015-03-21 20:47:46.281] [INFO] audit - audit trail started
[2015-03-21 20:49:05.319] [INFO] audit - audit trail started
[2015-03-21 20:56:01.410] [INFO] audit - audit trail started
[2015-03-21 20:57:27.823] [INFO] audit - audit trail started
