[2014-12-10 14:28:50.544] [INFO] audit - audit trail started
[2014-12-10 14:29:59.016] [INFO] audit - audit trail started
[2014-12-10 14:34:37.748] [INFO] audit - audit trail started
[2014-12-10 14:37:12.385] [INFO] audit - audit trail started
[2014-12-10 15:12:40.114] [INFO] audit - audit trail started
[2014-12-10 17:30:15.119] [INFO] audit - audit trail started
[2014-12-11 13:11:12.843] [INFO] audit - audit trail started
[2014-12-11 15:11:23.387] [INFO] audit - audit trail - system error -{"code":"ETIMEDOUT","errno":"ETIMEDOUT","syscall":"connect"}
[2014-12-11 15:12:01.747] [INFO] audit - audit trail - system error -{"code":"ETIMEDOUT","errno":"ETIMEDOUT","syscall":"connect"}
[2014-12-11 15:12:44.959] [INFO] audit - audit trail - system error -{"code":"ETIMEDOUT","errno":"ETIMEDOUT","syscall":"connect"}
[2014-12-11 15:12:46.438] [INFO] audit - audit trail - system error -{"code":"ETIMEDOUT","errno":"ETIMEDOUT","syscall":"connect"}
[2014-12-11 15:22:37.277] [INFO] audit - audit trail - system error -{"code":"ETIMEDOUT","errno":"ETIMEDOUT","syscall":"connect"}
[2014-12-11 15:22:37.377] [INFO] audit - audit trail - system error -{"code":"ETIMEDOUT","errno":"ETIMEDOUT","syscall":"connect"}
[2014-12-11 15:29:35.543] [INFO] audit - audit trail started
[2014-12-11 15:31:02.693] [INFO] audit - audit trail - system error -{"code":"ETIMEDOUT","errno":"ETIMEDOUT","syscall":"connect"}
[2014-12-11 15:31:13.537] [INFO] audit - audit trail - system error -{"code":"ETIMEDOUT","errno":"ETIMEDOUT","syscall":"connect"}
[2014-12-11 15:31:46.403] [INFO] audit - audit trail - system error -{"code":"ETIMEDOUT","errno":"ETIMEDOUT","syscall":"connect"}
[2014-12-11 15:32:08.535] [INFO] audit - audit trail started
[2014-12-11 15:32:50.921] [INFO] audit - audit trail - system error -{"code":"ETIMEDOUT","errno":"ETIMEDOUT","syscall":"connect"}
[2014-12-11 15:35:34.902] [INFO] audit - audit trail - system error -{"code":"ETIMEDOUT","errno":"ETIMEDOUT","syscall":"connect"}
[2014-12-11 15:36:49.290] [INFO] audit - audit trail started
[2014-12-11 15:37:15.347] [INFO] audit - audit trail - system error -{"code":"ETIMEDOUT","errno":"ETIMEDOUT","syscall":"connect"}
[2014-12-11 15:40:11.095] [INFO] audit - audit trail started
[2014-12-11 15:40:57.723] [INFO] audit - audit trail - system error -{"code":"ETIMEDOUT","errno":"ETIMEDOUT","syscall":"connect"}
[2014-12-11 15:44:05.778] [INFO] audit - audit trail started
[2014-12-11 15:44:33.678] [INFO] audit - audit trail - system error -{"code":"ETIMEDOUT","errno":"ETIMEDOUT","syscall":"connect"}
[2014-12-12 12:10:11.489] [INFO] audit - audit trail started
[2014-12-12 12:10:45.812] [INFO] audit - audit trail started
[2014-12-12 13:04:44.399] [INFO] audit - audit trail started
[2014-12-12 14:24:15.022] [INFO] audit - audit trail - system error -{"code":"ETIMEDOUT","errno":"ETIMEDOUT","syscall":"connect"}
[2014-12-12 18:53:49.384] [INFO] audit - audit trail started
[2014-12-12 19:03:58.666] [INFO] audit - audit trail - system error -{"code":"ETIMEDOUT","errno":"ETIMEDOUT","syscall":"connect"}
[2014-12-15 11:38:03.973] [INFO] audit - audit trail started
[2014-12-15 11:41:11.851] [INFO] audit - audit trail started
[2014-12-15 11:56:40.413] [INFO] audit - audit trail started
[2014-12-15 12:03:51.098] [INFO] audit - audit trail - system error -{"code":"ETIMEDOUT","errno":"ETIMEDOUT","syscall":"connect"}
[2014-12-15 12:07:43.997] [INFO] audit - audit trail started
[2014-12-15 12:18:33.033] [INFO] audit - audit trail started
[2014-12-15 12:19:18.947] [INFO] audit - audit trail - system error -{"code":"ETIMEDOUT","errno":"ETIMEDOUT","syscall":"connect"}
[2014-12-15 12:23:44.361] [INFO] audit - audit trail - system error -{"code":"ETIMEDOUT","errno":"ETIMEDOUT","syscall":"connect"}
[2014-12-15 12:32:41.949] [INFO] audit - audit trail - system error -{"code":"ETIMEDOUT","errno":"ETIMEDOUT","syscall":"connect"}
[2014-12-15 12:38:14.341] [INFO] audit - audit trail - system error -{"code":"ETIMEDOUT","errno":"ETIMEDOUT","syscall":"connect"}
[2014-12-15 12:38:15.987] [INFO] audit - audit trail - system error -{"code":"ETIMEDOUT","errno":"ETIMEDOUT","syscall":"connect"}
[2014-12-15 12:48:55.580] [INFO] audit - audit trail started
[2014-12-16 11:23:33.398] [INFO] audit - audit trail started
[2014-12-16 12:01:04.496] [INFO] audit - audit trail started
[2014-12-16 12:01:30.443] [INFO] audit - audit trail started
[2014-12-16 12:07:47.200] [INFO] audit - audit trail started
[2014-12-16 12:34:01.361] [INFO] audit - audit trail - system error -{"code":"ETIMEDOUT","errno":"ETIMEDOUT","syscall":"connect"}
[2014-12-16 12:39:32.861] [INFO] audit - audit trail - system error -{"code":"ETIMEDOUT","errno":"ETIMEDOUT","syscall":"connect"}
[2014-12-16 13:44:25.172] [INFO] audit - audit trail - system error -{"code":"ETIMEDOUT","errno":"ETIMEDOUT","syscall":"connect"}
[2014-12-16 13:45:14.241] [INFO] audit - audit trail - system error -{"code":"ETIMEDOUT","errno":"ETIMEDOUT","syscall":"connect"}
[2014-12-16 14:45:30.344] [INFO] audit - audit trail started
[2014-12-16 15:11:48.063] [INFO] audit - audit trail - system error -{"code":"ETIMEDOUT","errno":"ETIMEDOUT","syscall":"connect"}
[2014-12-16 15:30:22.826] [INFO] audit - audit trail - system error -{"code":"ETIMEDOUT","errno":"ETIMEDOUT","syscall":"connect"}
[2014-12-16 16:09:03.885] [INFO] audit - audit trail started
[2014-12-16 16:23:43.687] [INFO] audit - audit trail - system error -{"code":"ETIMEDOUT","errno":"ETIMEDOUT","syscall":"connect"}
[2014-12-16 16:24:59.803] [INFO] audit - audit trail - system error -{"code":"ETIMEDOUT","errno":"ETIMEDOUT","syscall":"connect"}
[2014-12-16 16:48:44.567] [INFO] audit - audit trail - system error -{"code":"ETIMEDOUT","errno":"ETIMEDOUT","syscall":"connect"}
[2014-12-16 17:29:38.823] [INFO] audit - audit trail started
[2014-12-16 18:32:58.237] [INFO] audit - audit trail - system error -{"code":"ETIMEDOUT","errno":"ETIMEDOUT","syscall":"connect"}
[2014-12-16 18:34:18.834] [INFO] audit - audit trail - system error -{"code":"ETIMEDOUT","errno":"ETIMEDOUT","syscall":"connect"}
[2014-12-17 10:41:09.177] [INFO] audit - audit trail started
[2014-12-17 14:26:58.638] [INFO] audit - audit trail started
[2014-12-17 17:35:06.289] [INFO] audit - audit trail started
[2014-12-17 17:37:50.719] [INFO] audit - audit trail started
[2014-12-18 10:39:23.142] [INFO] audit - audit trail started
[2014-12-18 10:39:33.521] [INFO] audit - audit trail started
[2014-12-18 10:40:42.574] [INFO] audit - audit trail started
[2014-12-18 10:42:17.583] [INFO] audit - audit trail started
[2014-12-18 10:42:54.718] [INFO] audit - audit trail started
[2014-12-18 10:52:37.127] [INFO] audit - audit trail started
[2014-12-18 10:57:00.204] [INFO] audit - audit trail started
[2014-12-18 10:58:12.530] [INFO] audit - audit trail started
[2014-12-18 11:06:38.813] [INFO] audit - audit trail started
[2014-12-18 11:13:59.918] [INFO] audit - audit trail started
[2014-12-18 11:16:04.666] [INFO] audit - audit trail started
[2014-12-18 11:18:09.508] [INFO] audit - audit trail started
[2014-12-18 11:36:52.927] [INFO] audit - audit trail started
[2014-12-18 11:38:20.925] [INFO] audit - audit trail started
[2014-12-18 11:50:56.282] [INFO] audit - audit trail started
[2014-12-18 11:51:42.341] [INFO] audit - audit trail started
[2014-12-18 11:53:02.238] [INFO] audit - audit trail started
[2014-12-18 11:54:17.350] [INFO] audit - audit trail started
[2014-12-18 12:17:52.844] [INFO] audit - audit trail started
[2014-12-18 12:27:12.505] [INFO] audit - audit trail started
[2014-12-18 12:28:15.805] [INFO] audit - audit trail started
[2014-12-18 12:30:51.159] [INFO] audit - audit trail started
[2014-12-18 12:37:08.953] [INFO] audit - audit trail started
[2014-12-18 12:43:21.961] [INFO] audit - audit trail started
[2014-12-18 12:43:56.113] [INFO] audit - audit trail - system error -{"code":"ETIMEDOUT","errno":"ETIMEDOUT","syscall":"connect"}
[2014-12-18 12:48:30.120] [INFO] audit - audit trail - system error -{"code":"ETIMEDOUT","errno":"ETIMEDOUT","syscall":"connect"}
[2014-12-18 12:49:47.655] [INFO] audit - audit trail - system error -{"code":"ETIMEDOUT","errno":"ETIMEDOUT","syscall":"connect"}
[2014-12-18 12:52:26.273] [INFO] audit - audit trail - system error -{"code":"ETIMEDOUT","errno":"ETIMEDOUT","syscall":"connect"}
[2014-12-18 15:00:45.301] [INFO] audit - audit trail started
[2014-12-18 16:29:02.690] [INFO] audit - audit trail started
[2014-12-18 16:35:49.214] [INFO] audit - audit trail started
[2014-12-18 17:08:47.485] [INFO] audit - audit trail started
[2014-12-18 17:21:21.246] [INFO] audit - audit trail started
[2014-12-18 17:25:01.905] [INFO] audit - audit trail started
[2014-12-18 17:26:15.777] [INFO] audit - audit trail started
[2014-12-18 17:33:36.279] [INFO] audit - audit trail started
[2014-12-18 17:34:24.939] [INFO] audit - audit trail - system error -{"code":"ETIMEDOUT","errno":"ETIMEDOUT","syscall":"connect"}
[2014-12-18 17:49:11.635] [INFO] audit - audit trail started
[2014-12-18 17:59:46.378] [INFO] audit - audit trail started
[2014-12-18 18:18:07.887] [INFO] audit - audit trail - system error -{"code":"ETIMEDOUT","errno":"ETIMEDOUT","syscall":"connect"}
[2014-12-18 18:21:46.621] [INFO] audit - audit trail - system error -{"code":"ETIMEDOUT","errno":"ETIMEDOUT","syscall":"connect"}
[2014-12-18 18:45:48.277] [INFO] audit - audit trail - system error -{"code":"ETIMEDOUT","errno":"ETIMEDOUT","syscall":"connect"}
[2014-12-18 18:53:29.167] [INFO] audit - audit trail - system error -{"code":"ETIMEDOUT","errno":"ETIMEDOUT","syscall":"connect"}
[2014-12-18 18:57:48.951] [INFO] audit - audit trail - system error -{"code":"ETIMEDOUT","errno":"ETIMEDOUT","syscall":"connect"}
[2014-12-18 18:57:56.689] [INFO] audit - audit trail - system error -{"code":"ETIMEDOUT","errno":"ETIMEDOUT","syscall":"connect"}
[2014-12-18 19:02:36.696] [INFO] audit - audit trail - system error -{"code":"ETIMEDOUT","errno":"ETIMEDOUT","syscall":"connect"}
[2014-12-18 19:03:03.422] [INFO] audit - audit trail - system error -{"code":"ETIMEDOUT","errno":"ETIMEDOUT","syscall":"connect"}
[2014-12-18 19:03:45.385] [INFO] audit - audit trail - system error -{"code":"ETIMEDOUT","errno":"ETIMEDOUT","syscall":"connect"}
[2014-12-18 19:09:36.046] [INFO] audit - audit trail - system error -{"code":"ETIMEDOUT","errno":"ETIMEDOUT","syscall":"connect"}
[2014-12-18 19:10:38.796] [INFO] audit - audit trail - system error -{"code":"ETIMEDOUT","errno":"ETIMEDOUT","syscall":"connect"}
[2014-12-18 19:15:10.067] [INFO] audit - audit trail - system error -{"code":"ETIMEDOUT","errno":"ETIMEDOUT","syscall":"connect"}
[2014-12-18 19:15:23.569] [INFO] audit - audit trail - system error -{"code":"ETIMEDOUT","errno":"ETIMEDOUT","syscall":"connect"}
[2014-12-18 19:19:50.360] [INFO] audit - audit trail - system error -{"code":"ETIMEDOUT","errno":"ETIMEDOUT","syscall":"connect"}
[2014-12-18 19:20:18.149] [INFO] audit - audit trail - system error -{"code":"ETIMEDOUT","errno":"ETIMEDOUT","syscall":"connect"}
[2014-12-18 19:20:23.816] [INFO] audit - audit trail - system error -{"code":"ETIMEDOUT","errno":"ETIMEDOUT","syscall":"connect"}
[2014-12-18 19:20:32.514] [INFO] audit - audit trail - system error -{"code":"ETIMEDOUT","errno":"ETIMEDOUT","syscall":"connect"}
[2014-12-19 10:45:30.272] [INFO] audit - audit trail started
[2014-12-19 10:49:53.476] [INFO] audit - audit trail - system error -{"code":"ETIMEDOUT","errno":"ETIMEDOUT","syscall":"connect"}
[2014-12-19 10:52:47.714] [INFO] audit - audit trail - system error -{"code":"ETIMEDOUT","errno":"ETIMEDOUT","syscall":"connect"}
[2014-12-19 10:56:15.151] [INFO] audit - audit trail - system error -{"code":"ETIMEDOUT","errno":"ETIMEDOUT","syscall":"connect"}
[2014-12-19 10:57:31.090] [INFO] audit - audit trail - system error -{"code":"ETIMEDOUT","errno":"ETIMEDOUT","syscall":"connect"}
[2014-12-19 10:57:48.075] [INFO] audit - audit trail - system error -{"code":"ETIMEDOUT","errno":"ETIMEDOUT","syscall":"connect"}
[2014-12-19 10:58:06.955] [INFO] audit - audit trail - system error -{"code":"ETIMEDOUT","errno":"ETIMEDOUT","syscall":"connect"}
[2014-12-19 11:02:22.288] [INFO] audit - audit trail - system error -{"code":"ETIMEDOUT","errno":"ETIMEDOUT","syscall":"connect"}
[2014-12-19 11:03:47.095] [INFO] audit - audit trail - system error -{"code":"ETIMEDOUT","errno":"ETIMEDOUT","syscall":"connect"}
[2014-12-19 11:03:47.841] [INFO] audit - audit trail - system error -{"code":"ETIMEDOUT","errno":"ETIMEDOUT","syscall":"connect"}
[2014-12-19 11:04:40.020] [INFO] audit - audit trail - system error -{"code":"ETIMEDOUT","errno":"ETIMEDOUT","syscall":"connect"}
[2014-12-19 11:05:29.358] [INFO] audit - audit trail - system error -{"code":"ETIMEDOUT","errno":"ETIMEDOUT","syscall":"connect"}
[2014-12-19 11:07:41.193] [INFO] audit - audit trail - system error -{"code":"ETIMEDOUT","errno":"ETIMEDOUT","syscall":"connect"}
[2014-12-19 11:07:50.114] [INFO] audit - audit trail - system error -{"code":"ETIMEDOUT","errno":"ETIMEDOUT","syscall":"connect"}
[2014-12-19 11:12:26.588] [INFO] audit - audit trail - system error -{"code":"ETIMEDOUT","errno":"ETIMEDOUT","syscall":"connect"}
[2014-12-19 11:13:46.614] [INFO] audit - audit trail - system error -{"code":"ETIMEDOUT","errno":"ETIMEDOUT","syscall":"connect"}
[2014-12-19 11:13:52.314] [INFO] audit - audit trail - system error -{"code":"ETIMEDOUT","errno":"ETIMEDOUT","syscall":"connect"}
[2014-12-19 12:18:50.488] [INFO] audit - audit trail - system error -{"code":"ETIMEDOUT","errno":"ETIMEDOUT","syscall":"connect"}
[2014-12-19 12:19:28.258] [INFO] audit - audit trail - system error -{"code":"ETIMEDOUT","errno":"ETIMEDOUT","syscall":"connect"}
[2014-12-19 12:22:05.457] [INFO] audit - audit trail - system error -{"code":"ETIMEDOUT","errno":"ETIMEDOUT","syscall":"connect"}
[2014-12-19 12:36:16.732] [INFO] audit - audit trail - system error -{"code":"ETIMEDOUT","errno":"ETIMEDOUT","syscall":"connect"}
[2014-12-19 12:49:42.643] [INFO] audit - audit trail - system error -{"code":"ETIMEDOUT","errno":"ETIMEDOUT","syscall":"connect"}
[2014-12-19 12:50:36.195] [INFO] audit - audit trail - system error -{"code":"ETIMEDOUT","errno":"ETIMEDOUT","syscall":"connect"}
[2014-12-19 12:52:09.027] [INFO] audit - audit trail - system error -{"code":"ETIMEDOUT","errno":"ETIMEDOUT","syscall":"connect"}
[2014-12-19 12:53:18.019] [INFO] audit - audit trail - system error -{"code":"ETIMEDOUT","errno":"ETIMEDOUT","syscall":"connect"}
[2014-12-19 13:08:59.070] [INFO] audit - audit trail - system error -{"code":"ETIMEDOUT","errno":"ETIMEDOUT","syscall":"connect"}
[2014-12-19 13:09:28.260] [INFO] audit - audit trail - system error -{"code":"ETIMEDOUT","errno":"ETIMEDOUT","syscall":"connect"}
[2014-12-19 14:39:38.368] [INFO] audit - audit trail started
[2014-12-19 14:46:42.979] [INFO] audit - audit trail - system error -{"code":"ETIMEDOUT","errno":"ETIMEDOUT","syscall":"connect"}
[2014-12-19 14:55:35.768] [INFO] audit - audit trail started
[2014-12-19 15:25:20.915] [INFO] audit - audit trail - system error -{"code":"ETIMEDOUT","errno":"ETIMEDOUT","syscall":"connect"}
[2014-12-19 16:03:14.790] [INFO] audit - audit trail - system error -{"code":"ETIMEDOUT","errno":"ETIMEDOUT","syscall":"connect"}
[2014-12-19 16:03:16.168] [INFO] audit - audit trail - system error -{"code":"ETIMEDOUT","errno":"ETIMEDOUT","syscall":"connect"}
[2014-12-19 16:25:41.561] [INFO] audit - audit trail - system error -{"code":"ETIMEDOUT","errno":"ETIMEDOUT","syscall":"connect"}
[2014-12-19 16:33:28.297] [INFO] audit - audit trail - system error -{"code":"ETIMEDOUT","errno":"ETIMEDOUT","syscall":"connect"}
[2014-12-19 16:34:38.208] [INFO] audit - audit trail - system error -{"code":"ETIMEDOUT","errno":"ETIMEDOUT","syscall":"connect"}
[2014-12-19 16:34:47.195] [INFO] audit - audit trail - system error -{"code":"ETIMEDOUT","errno":"ETIMEDOUT","syscall":"connect"}
[2014-12-19 16:35:01.473] [INFO] audit - audit trail - system error -{"code":"ETIMEDOUT","errno":"ETIMEDOUT","syscall":"connect"}
[2014-12-19 16:36:23.891] [INFO] audit - audit trail - system error -{"code":"ETIMEDOUT","errno":"ETIMEDOUT","syscall":"connect"}
[2014-12-19 16:38:22.471] [INFO] audit - audit trail - system error -{"code":"ETIMEDOUT","errno":"ETIMEDOUT","syscall":"connect"}
[2014-12-19 16:39:14.585] [INFO] audit - audit trail - system error -{"code":"ETIMEDOUT","errno":"ETIMEDOUT","syscall":"connect"}
[2014-12-19 16:41:08.014] [INFO] audit - audit trail - system error -{"code":"ETIMEDOUT","errno":"ETIMEDOUT","syscall":"connect"}
[2014-12-19 16:46:23.536] [INFO] audit - audit trail - system error -{"code":"ETIMEDOUT","errno":"ETIMEDOUT","syscall":"connect"}
[2014-12-19 16:49:49.751] [INFO] audit - audit trail - system error -{"code":"ETIMEDOUT","errno":"ETIMEDOUT","syscall":"connect"}
[2014-12-19 17:14:50.983] [INFO] audit - audit trail started
[2014-12-20 11:01:14.418] [INFO] audit - audit trail started
[2014-12-20 12:46:45.249] [INFO] audit - audit trail - system error -{"code":"ETIMEDOUT","errno":"ETIMEDOUT","syscall":"connect"}
[2014-12-20 12:47:26.300] [INFO] audit - audit trail - system error -{"code":"ETIMEDOUT","errno":"ETIMEDOUT","syscall":"connect"}
[2014-12-20 12:53:27.563] [INFO] audit - audit trail - system error -{"code":"ETIMEDOUT","errno":"ETIMEDOUT","syscall":"connect"}
[2014-12-20 12:54:23.297] [INFO] audit - audit trail - system error -{"code":"ETIMEDOUT","errno":"ETIMEDOUT","syscall":"connect"}
[2014-12-20 12:56:39.564] [INFO] audit - audit trail - system error -{"code":"ETIMEDOUT","errno":"ETIMEDOUT","syscall":"connect"}
[2014-12-20 13:03:01.413] [INFO] audit - audit trail - system error -{"code":"ETIMEDOUT","errno":"ETIMEDOUT","syscall":"connect"}
[2014-12-20 13:03:20.172] [INFO] audit - audit trail - system error -{"code":"ETIMEDOUT","errno":"ETIMEDOUT","syscall":"connect"}
[2014-12-20 13:03:27.138] [INFO] audit - audit trail - system error -{"code":"ETIMEDOUT","errno":"ETIMEDOUT","syscall":"connect"}
[2014-12-20 13:03:31.496] [INFO] audit - audit trail - system error -{"code":"ETIMEDOUT","errno":"ETIMEDOUT","syscall":"connect"}
[2014-12-20 13:03:38.045] [INFO] audit - audit trail - system error -{"code":"ETIMEDOUT","errno":"ETIMEDOUT","syscall":"connect"}
[2014-12-20 13:03:45.667] [INFO] audit - audit trail - system error -{"code":"ETIMEDOUT","errno":"ETIMEDOUT","syscall":"connect"}
[2014-12-20 13:10:46.369] [INFO] audit - audit trail - system error -{"code":"ETIMEDOUT","errno":"ETIMEDOUT","syscall":"connect"}
[2014-12-20 13:16:06.334] [INFO] audit - audit trail started
[2014-12-20 13:17:32.343] [INFO] audit - audit trail - system error -{"code":"ETIMEDOUT","errno":"ETIMEDOUT","syscall":"connect"}
[2014-12-20 13:17:39.895] [INFO] audit - audit trail - system error -{"code":"ETIMEDOUT","errno":"ETIMEDOUT","syscall":"connect"}
[2014-12-20 13:42:01.759] [INFO] audit - audit trail - system error -{"code":"ETIMEDOUT","errno":"ETIMEDOUT","syscall":"connect"}
[2014-12-20 14:13:16.178] [INFO] audit - audit trail - system error -{"code":"ETIMEDOUT","errno":"ETIMEDOUT","syscall":"connect"}
[2014-12-20 14:13:16.181] [INFO] audit - audit trail - system error -{"code":"ETIMEDOUT","errno":"ETIMEDOUT","syscall":"connect"}
[2014-12-20 14:13:16.190] [INFO] audit - audit trail - system error -{"code":"ETIMEDOUT","errno":"ETIMEDOUT","syscall":"connect"}
[2014-12-20 14:13:16.298] [INFO] audit - audit trail - system error -{"code":"ETIMEDOUT","errno":"ETIMEDOUT","syscall":"connect"}
[2014-12-20 14:13:16.300] [INFO] audit - audit trail - system error -{"code":"ETIMEDOUT","errno":"ETIMEDOUT","syscall":"connect"}
[2014-12-20 14:13:37.182] [INFO] audit - audit trail - system error -{"code":"ETIMEDOUT","errno":"ETIMEDOUT","syscall":"connect"}
[2014-12-20 14:14:58.080] [INFO] audit - audit trail - system error -{"code":"ETIMEDOUT","errno":"ETIMEDOUT","syscall":"connect"}
[2014-12-20 14:15:48.789] [INFO] audit - audit trail - system error -{"code":"ETIMEDOUT","errno":"ETIMEDOUT","syscall":"connect"}
[2014-12-20 14:18:51.857] [INFO] audit - audit trail - system error -{"code":"ETIMEDOUT","errno":"ETIMEDOUT","syscall":"connect"}
[2014-12-22 10:48:57.214] [INFO] audit - audit trail started
[2014-12-22 11:36:54.514] [INFO] audit - audit trail - system error -{"code":"ETIMEDOUT","errno":"ETIMEDOUT","syscall":"connect"}
[2014-12-22 11:55:33.600] [INFO] audit - audit trail started
