[2014-12-10 14:28:50.610] [INFO] proj - proj master started
[2014-12-10 14:28:50.993] [INFO] proj - proj master started
[2014-12-10 14:29:59.106] [INFO] proj - proj master started
[2014-12-10 14:29:59.567] [INFO] proj - proj master started
[2014-12-10 14:34:37.832] [INFO] proj - proj master started
[2014-12-10 14:34:38.270] [INFO] proj - proj master started
[2014-12-10 14:37:12.474] [INFO] proj - proj master started
[2014-12-10 14:37:12.924] [INFO] proj - proj master started
[2014-12-10 15:12:40.130] [INFO] proj - proj master started
[2014-12-10 15:12:40.237] [INFO] proj - proj master started
[2014-12-10 17:30:15.133] [INFO] proj - proj master started
[2014-12-10 17:30:15.238] [INFO] proj - proj master started
[2014-12-11 13:11:12.857] [INFO] proj - proj master started
[2014-12-11 13:11:12.957] [INFO] proj - proj master started
[2014-12-11 15:29:35.557] [INFO] proj - proj master started
[2014-12-11 15:29:35.661] [INFO] proj - proj master started
[2014-12-11 15:32:08.550] [INFO] proj - proj master started
[2014-12-11 15:32:08.661] [INFO] proj - proj master started
[2014-12-11 15:36:49.310] [INFO] proj - proj master started
[2014-12-11 15:36:49.425] [INFO] proj - proj master started
[2014-12-11 15:40:11.110] [INFO] proj - proj master started
[2014-12-11 15:40:11.211] [INFO] proj - proj master started
[2014-12-11 15:43:49.730] [INFO] proj - record saved successfully
[2014-12-11 15:44:05.793] [INFO] proj - proj master started
[2014-12-11 15:44:05.901] [INFO] proj - proj master started
[2014-12-11 15:44:12.684] [INFO] proj - record saved successfully
[2014-12-12 12:10:11.504] [INFO] proj - proj master started
[2014-12-12 12:10:11.607] [INFO] proj - proj master started
[2014-12-12 12:10:45.826] [INFO] proj - proj master started
[2014-12-12 12:10:45.928] [INFO] proj - proj master started
[2014-12-12 13:04:44.413] [INFO] proj - proj master started
[2014-12-12 13:04:44.513] [INFO] proj - proj master started
[2014-12-12 18:53:49.399] [INFO] proj - proj master started
[2014-12-12 18:53:49.503] [INFO] proj - proj master started
[2014-12-15 11:38:03.989] [INFO] proj - proj master started
[2014-12-15 11:38:04.092] [INFO] proj - proj master started
[2014-12-15 11:41:11.865] [INFO] proj - proj master started
[2014-12-15 11:41:11.969] [INFO] proj - proj master started
[2014-12-15 11:56:40.489] [INFO] proj - proj master started
[2014-12-15 11:56:40.915] [INFO] proj - proj master started
[2014-12-15 12:07:44.012] [INFO] proj - proj master started
[2014-12-15 12:07:44.115] [INFO] proj - proj master started
[2014-12-15 12:18:33.113] [INFO] proj - proj master started
[2014-12-15 12:18:33.675] [INFO] proj - proj master started
[2014-12-15 12:48:55.594] [INFO] proj - proj master started
[2014-12-15 12:48:55.698] [INFO] proj - proj master started
[2014-12-16 11:23:33.411] [INFO] proj - proj master started
[2014-12-16 11:23:33.508] [INFO] proj - proj master started
[2014-12-16 12:01:08.852] [INFO] proj - proj master started
[2014-12-16 12:01:09.237] [INFO] proj - proj master started
[2014-12-16 12:01:34.070] [INFO] proj - proj master started
[2014-12-16 12:01:34.346] [INFO] proj - proj master started
[2014-12-16 12:07:47.212] [INFO] proj - proj master started
[2014-12-16 12:07:47.298] [INFO] proj - proj master started
[2014-12-16 14:45:30.429] [INFO] proj - proj master started
[2014-12-16 14:45:30.810] [INFO] proj - proj master started
[2014-12-16 16:07:51.529] [INFO] proj - error in list_search,err:failed to connect to [54.179.187.189:27017]
[2014-12-16 16:08:03.038] [INFO] proj - error in list_search,err:failed to connect to [54.179.187.189:27017]
[2014-12-16 16:09:03.899] [INFO] proj - proj master started
[2014-12-16 16:09:03.984] [INFO] proj - proj master started
[2014-12-16 17:29:38.845] [INFO] proj - proj master started
[2014-12-16 17:29:38.960] [INFO] proj - proj master started
[2014-12-17 10:41:09.208] [INFO] proj - proj master started
[2014-12-17 10:41:09.388] [INFO] proj - proj master started
[2014-12-17 14:26:58.660] [INFO] proj - proj master started
[2014-12-17 14:26:58.810] [INFO] proj - proj master started
[2014-12-17 17:35:06.313] [INFO] proj - proj master started
[2014-12-17 17:35:06.472] [INFO] proj - proj master started
[2014-12-17 17:37:50.737] [INFO] proj - proj master started
[2014-12-17 17:37:50.842] [INFO] proj - proj master started
[2014-12-18 10:39:23.209] [INFO] proj - proj master started
[2014-12-18 10:39:23.635] [INFO] proj - proj master started
[2014-12-18 10:39:33.587] [INFO] proj - proj master started
[2014-12-18 10:39:33.914] [INFO] proj - proj master started
[2014-12-18 10:40:42.655] [INFO] proj - proj master started
[2014-12-18 10:40:43.056] [INFO] proj - proj master started
[2014-12-18 10:42:17.654] [INFO] proj - proj master started
[2014-12-18 10:42:18.082] [INFO] proj - proj master started
[2014-12-18 10:42:54.729] [INFO] proj - proj master started
[2014-12-18 10:42:54.797] [INFO] proj - proj master started
[2014-12-18 10:52:37.199] [INFO] proj - proj master started
[2014-12-18 10:52:37.474] [INFO] proj - proj master started
[2014-12-18 10:57:00.218] [INFO] proj - proj master started
[2014-12-18 10:57:00.325] [INFO] proj - proj master started
[2014-12-18 10:58:12.609] [INFO] proj - proj master started
[2014-12-18 10:58:13.000] [INFO] proj - proj master started
[2014-12-18 11:06:38.995] [INFO] proj - proj master started
[2014-12-18 11:06:39.365] [INFO] proj - proj master started
[2014-12-18 11:13:59.933] [INFO] proj - proj master started
[2014-12-18 11:14:00.026] [INFO] proj - proj master started
[2014-12-18 11:16:04.746] [INFO] proj - proj master started
[2014-12-18 11:16:06.141] [INFO] proj - proj master started
[2014-12-18 11:18:09.593] [INFO] proj - proj master started
[2014-12-18 11:18:10.039] [INFO] proj - proj master started
[2014-12-18 11:36:27.091] [INFO] proj - error in list_search,err:failed to connect to [54.179.187.189:27017]
[2014-12-18 11:36:52.993] [INFO] proj - proj master started
[2014-12-18 11:36:53.386] [INFO] proj - proj master started
[2014-12-18 11:38:20.992] [INFO] proj - proj master started
[2014-12-18 11:38:21.378] [INFO] proj - proj master started
[2014-12-18 11:50:56.355] [INFO] proj - proj master started
[2014-12-18 11:50:57.911] [INFO] proj - proj master started
[2014-12-18 11:51:42.350] [INFO] proj - proj master started
[2014-12-18 11:51:42.419] [INFO] proj - proj master started
[2014-12-18 11:53:02.248] [INFO] proj - proj master started
[2014-12-18 11:53:02.311] [INFO] proj - proj master started
[2014-12-18 11:54:17.450] [INFO] proj - proj master started
[2014-12-18 11:54:17.886] [INFO] proj - proj master started
[2014-12-18 12:17:52.906] [INFO] proj - proj master started
[2014-12-18 12:17:53.249] [INFO] proj - proj master started
[2014-12-18 12:17:53.270] [INFO] proj - proj master started
[2014-12-18 12:27:12.521] [INFO] proj - proj master started
[2014-12-18 12:27:12.628] [INFO] proj - proj master started
[2014-12-18 12:27:12.633] [INFO] proj - proj master started
[2014-12-18 12:28:15.819] [INFO] proj - proj master started
[2014-12-18 12:28:15.899] [INFO] proj - proj master started
[2014-12-18 12:28:15.903] [INFO] proj - proj master started
[2014-12-18 12:30:51.221] [INFO] proj - proj master started
[2014-12-18 12:30:51.570] [INFO] proj - proj master started
[2014-12-18 12:30:51.591] [INFO] proj - proj master started
[2014-12-18 12:37:09.043] [INFO] proj - proj master started
[2014-12-18 12:37:09.482] [INFO] proj - proj master started
[2014-12-18 12:37:09.635] [INFO] proj - proj master started
[2014-12-18 12:43:21.971] [INFO] proj - proj master started
[2014-12-18 12:43:22.041] [INFO] proj - proj master started
[2014-12-18 12:43:22.043] [INFO] proj - proj master started
[2014-12-18 12:43:35.118] [INFO] proj - record saved successfully
[2014-12-18 12:48:09.119] [INFO] proj - record saved successfully
[2014-12-18 12:49:26.655] [INFO] proj - record saved successfully
[2014-12-18 12:52:05.274] [INFO] proj - record saved successfully
[2014-12-18 15:00:45.324] [INFO] proj - proj master started
[2014-12-18 15:00:45.456] [INFO] proj - proj master started
[2014-12-18 15:00:45.469] [INFO] proj - proj master started
[2014-12-18 16:29:02.770] [INFO] proj - proj master started
[2014-12-18 16:29:03.167] [INFO] proj - proj master started
[2014-12-18 16:29:03.291] [INFO] proj - proj master started
[2014-12-18 16:35:49.227] [INFO] proj - proj master started
[2014-12-18 16:35:49.317] [INFO] proj - proj master started
[2014-12-18 16:35:49.321] [INFO] proj - proj master started
[2014-12-18 17:08:47.569] [INFO] proj - proj master started
[2014-12-18 17:08:47.960] [INFO] proj - proj master started
[2014-12-18 17:08:48.082] [INFO] proj - proj master started
[2014-12-18 17:21:21.256] [INFO] proj - proj master started
[2014-12-18 17:21:21.330] [INFO] proj - proj master started
[2014-12-18 17:21:21.332] [INFO] proj - proj master started
[2014-12-18 17:25:01.994] [INFO] proj - proj master started
[2014-12-18 17:25:02.465] [INFO] proj - proj master started
[2014-12-18 17:25:02.525] [INFO] proj - proj master started
[2014-12-18 17:26:15.851] [INFO] proj - proj master started
[2014-12-18 17:26:16.265] [INFO] proj - proj master started
[2014-12-18 17:26:16.320] [INFO] proj - proj master started
[2014-12-18 17:33:36.295] [INFO] proj - proj master started
[2014-12-18 17:33:36.405] [INFO] proj - proj master started
[2014-12-18 17:33:36.409] [INFO] proj - proj master started
[2014-12-18 17:34:03.935] [INFO] proj - record deleted successfully
[2014-12-18 17:49:11.656] [INFO] proj - proj master started
[2014-12-18 17:49:11.741] [INFO] proj - proj master started
[2014-12-18 17:49:11.744] [INFO] proj - proj master started
[2014-12-18 17:59:46.395] [INFO] proj - proj master started
[2014-12-18 17:59:46.492] [INFO] proj - proj master started
[2014-12-18 17:59:46.497] [INFO] proj - proj master started
[2014-12-18 18:17:46.889] [INFO] proj - record saved successfully
[2014-12-18 18:21:25.624] [INFO] proj - record saved successfully
[2014-12-18 18:45:27.278] [INFO] proj - record saved successfully
[2014-12-18 18:53:08.159] [INFO] proj - record saved successfully
[2014-12-18 18:57:27.953] [INFO] proj - record deleted successfully
[2014-12-18 18:57:35.688] [INFO] proj - record deleted successfully
[2014-12-18 19:02:15.690] [INFO] proj - record saved successfully
[2014-12-18 19:02:42.422] [INFO] proj - record saved successfully
[2014-12-18 19:03:24.385] [INFO] proj - record deleted successfully
[2014-12-18 19:09:15.056] [INFO] proj - record saved successfully
[2014-12-18 19:10:17.793] [INFO] proj - record saved successfully
[2014-12-18 19:14:49.062] [INFO] proj - record saved successfully
[2014-12-18 19:15:02.568] [INFO] proj - record deleted successfully
[2014-12-18 19:19:29.352] [INFO] proj - record saved successfully
[2014-12-18 19:19:57.145] [INFO] proj - record deleted successfully
[2014-12-18 19:20:02.810] [INFO] proj - record deleted successfully
[2014-12-18 19:20:11.512] [INFO] proj - record deleted successfully
[2014-12-19 10:45:30.461] [INFO] proj - proj master started
[2014-12-19 10:45:31.094] [INFO] proj - proj master started
[2014-12-19 10:45:31.170] [INFO] proj - proj master started
[2014-12-19 10:49:32.472] [INFO] proj - record saved successfully
[2014-12-19 10:52:26.642] [INFO] proj - record deleted successfully
[2014-12-19 10:55:54.156] [INFO] proj - record saved successfully
[2014-12-19 10:57:10.088] [INFO] proj - record saved successfully
[2014-12-19 10:57:27.087] [INFO] proj - record deleted successfully
[2014-12-19 10:57:45.901] [INFO] proj - record deleted successfully
[2014-12-19 11:02:01.291] [INFO] proj - record saved successfully
[2014-12-19 11:03:26.097] [INFO] proj - record saved successfully
[2014-12-19 11:03:26.847] [INFO] proj - record saved successfully
[2014-12-19 11:04:19.017] [INFO] proj - record saved successfully
[2014-12-19 11:05:08.356] [INFO] proj - record deleted successfully
[2014-12-19 11:07:20.109] [INFO] proj - record deleted successfully
[2014-12-19 11:07:29.114] [INFO] proj - record saved successfully
[2014-12-19 11:12:05.498] [INFO] proj - record saved successfully
[2014-12-19 11:13:25.610] [INFO] proj - record deleted successfully
[2014-12-19 11:13:31.236] [INFO] proj - record deleted successfully
[2014-12-19 12:18:29.500] [INFO] proj - record saved successfully
[2014-12-19 12:19:07.256] [INFO] proj - record saved successfully
[2014-12-19 12:21:44.334] [INFO] proj - record saved successfully
[2014-12-19 12:35:55.727] [INFO] proj - record saved successfully
[2014-12-19 12:49:21.647] [INFO] proj - record saved successfully
[2014-12-19 12:50:15.202] [INFO] proj - record saved successfully
[2014-12-19 12:51:48.023] [INFO] proj - record saved successfully
[2014-12-19 12:52:57.025] [INFO] proj - record saved successfully
[2014-12-19 13:08:38.064] [INFO] proj - record saved successfully
[2014-12-19 13:09:07.268] [INFO] proj - record saved successfully
[2014-12-19 14:39:38.388] [INFO] proj - proj master started
[2014-12-19 14:39:38.517] [INFO] proj - proj master started
[2014-12-19 14:39:38.529] [INFO] proj - proj master started
[2014-12-19 14:46:21.972] [INFO] proj - record saved successfully
[2014-12-19 14:55:35.778] [INFO] proj - proj master started
[2014-12-19 14:55:35.864] [INFO] proj - proj master started
[2014-12-19 14:55:35.869] [INFO] proj - proj master started
[2014-12-19 15:24:59.917] [INFO] proj - record saved successfully
[2014-12-19 16:02:53.786] [INFO] proj - record saved successfully
[2014-12-19 16:02:55.168] [INFO] proj - record saved successfully
[2014-12-19 16:25:20.560] [INFO] proj - record saved successfully
[2014-12-19 16:33:07.265] [INFO] proj - record saved successfully
[2014-12-19 16:34:17.213] [INFO] proj - record saved successfully
[2014-12-19 16:34:26.189] [INFO] proj - record deleted successfully
[2014-12-19 16:34:40.473] [INFO] proj - record deleted successfully
[2014-12-19 16:36:02.887] [INFO] proj - record saved successfully
[2014-12-19 16:38:01.463] [INFO] proj - record saved successfully
[2014-12-19 16:38:53.583] [INFO] proj - record saved successfully
[2014-12-19 16:40:47.011] [INFO] proj - record saved successfully
[2014-12-19 16:46:02.536] [INFO] proj - record saved successfully
[2014-12-19 16:49:28.744] [INFO] proj - record saved successfully
[2014-12-19 17:13:52.578] [INFO] proj - error in list_search,err:failed to connect to [54.179.187.189:27017]
[2014-12-19 17:14:51.005] [INFO] proj - proj master started
[2014-12-19 17:14:51.155] [INFO] proj - proj master started
[2014-12-19 17:14:51.166] [INFO] proj - proj master started
[2014-12-20 11:01:14.428] [INFO] proj - proj master started
[2014-12-20 11:01:14.501] [INFO] proj - proj master started
[2014-12-20 11:01:14.503] [INFO] proj - proj master started
[2014-12-20 12:46:24.251] [INFO] proj - record deleted successfully
[2014-12-20 12:47:05.297] [INFO] proj - record saved successfully
[2014-12-20 12:53:06.556] [INFO] proj - record saved successfully
[2014-12-20 12:54:02.295] [INFO] proj - record deleted successfully
[2014-12-20 12:56:18.564] [INFO] proj - record saved successfully
[2014-12-20 13:02:40.416] [INFO] proj - record saved successfully
[2014-12-20 13:02:59.173] [INFO] proj - record deleted successfully
[2014-12-20 13:03:06.140] [INFO] proj - record deleted successfully
[2014-12-20 13:03:10.497] [INFO] proj - record deleted successfully
[2014-12-20 13:03:17.048] [INFO] proj - record deleted successfully
[2014-12-20 13:03:24.659] [INFO] proj - record deleted successfully
[2014-12-20 13:10:25.360] [INFO] proj - record saved successfully
[2014-12-20 13:16:06.358] [INFO] proj - proj master started
[2014-12-20 13:16:06.520] [INFO] proj - proj master started
[2014-12-20 13:16:06.527] [INFO] proj - proj master started
[2014-12-20 13:17:11.350] [INFO] proj - record deleted successfully
[2014-12-20 13:17:18.891] [INFO] proj - record deleted successfully
[2014-12-20 13:41:40.753] [INFO] proj - record saved successfully
[2014-12-20 14:12:55.169] [INFO] proj - record saved successfully
[2014-12-20 14:12:55.181] [INFO] proj - record saved successfully
[2014-12-20 14:12:55.191] [INFO] proj - record saved successfully
[2014-12-20 14:12:55.289] [INFO] proj - record saved successfully
[2014-12-20 14:12:55.305] [INFO] proj - record saved successfully
[2014-12-20 14:12:55.314] [INFO] proj - record saved successfully
[2014-12-20 14:14:37.078] [INFO] proj - record saved successfully
[2014-12-20 14:15:27.789] [INFO] proj - record saved successfully
[2014-12-20 14:18:30.859] [INFO] proj - record saved successfully
[2014-12-22 10:48:57.226] [INFO] proj - proj master started
[2014-12-22 10:48:57.316] [INFO] proj - proj master started
[2014-12-22 10:48:57.320] [INFO] proj - proj master started
[2014-12-22 11:36:33.515] [INFO] proj - record saved successfully
[2014-12-22 11:55:33.621] [INFO] proj - proj master started
[2014-12-22 11:55:33.750] [INFO] proj - proj master started
[2014-12-22 11:55:33.753] [INFO] proj - proj master started
[2014-12-22 12:49:13.649] [INFO] proj - error in list_search,err:failed to connect to [54.179.187.189:27017]
[2014-12-22 12:56:23.826] [INFO] proj - proj master started
[2014-12-22 12:56:23.942] [INFO] proj - proj master started
[2014-12-22 12:56:23.946] [INFO] proj - proj master started
[2014-12-22 12:57:04.619] [INFO] proj - proj master started
[2014-12-22 12:57:04.726] [INFO] proj - proj master started
[2014-12-22 12:57:04.730] [INFO] proj - proj master started
[2014-12-22 14:41:43.835] [INFO] proj - proj master started
[2014-12-22 14:41:43.937] [INFO] proj - proj master started
[2014-12-22 14:41:43.940] [INFO] proj - proj master started
[2014-12-22 14:43:50.134] [INFO] proj - record saved successfully
[2014-12-22 14:47:21.740] [INFO] proj - record saved successfully
[2014-12-22 14:51:40.823] [INFO] proj - record saved successfully
[2014-12-22 14:55:29.792] [INFO] proj - record saved successfully
[2014-12-22 14:56:07.288] [INFO] proj - record saved successfully
[2014-12-22 16:04:34.987] [INFO] proj - record saved successfully
[2014-12-22 16:12:02.657] [INFO] proj - record saved successfully
[2014-12-22 16:39:51.249] [INFO] proj - record saved successfully
[2014-12-22 16:40:53.004] [INFO] proj - record deleted successfully
[2014-12-22 16:41:08.487] [INFO] proj - record saved successfully
[2014-12-22 16:47:52.539] [INFO] proj - record saved successfully
[2014-12-22 16:55:27.540] [INFO] proj - record saved successfully
[2014-12-22 16:57:36.808] [INFO] proj - record saved successfully
[2014-12-22 18:01:24.554] [INFO] proj - proj master started
[2014-12-22 18:01:24.704] [INFO] proj - proj master started
[2014-12-22 18:01:24.709] [INFO] proj - proj master started
[2014-12-22 18:39:58.045] [INFO] proj - record saved successfully
[2014-12-22 18:48:04.486] [INFO] proj - record saved successfully
[2014-12-22 18:48:28.649] [INFO] proj - record saved successfully
[2014-12-22 18:50:05.415] [INFO] proj - record saved successfully
[2014-12-22 18:50:43.505] [INFO] proj - record saved successfully
[2014-12-22 18:51:32.304] [INFO] proj - record deleted successfully
[2014-12-22 18:51:42.959] [INFO] proj - record deleted successfully
[2014-12-22 18:51:52.686] [INFO] proj - record deleted successfully
[2014-12-22 19:00:17.772] [INFO] proj - record saved successfully
[2014-12-22 19:00:45.878] [INFO] proj - record saved successfully
[2014-12-22 19:01:01.087] [INFO] proj - record deleted successfully
[2014-12-22 19:01:10.973] [INFO] proj - record deleted successfully
[2014-12-23 10:15:32.911] [INFO] proj - proj master started
[2014-12-23 10:15:33.039] [INFO] proj - proj master started
[2014-12-23 10:15:33.043] [INFO] proj - proj master started
[2014-12-23 11:44:45.800] [INFO] proj - record saved successfully
[2014-12-23 11:48:01.861] [INFO] proj - record saved successfully
[2014-12-23 11:51:23.797] [INFO] proj - record saved successfully
[2014-12-23 11:53:08.317] [INFO] proj - record saved successfully
[2014-12-23 11:55:09.029] [INFO] proj - proj master started
[2014-12-23 11:55:09.528] [INFO] proj - proj master started
[2014-12-23 11:55:09.572] [INFO] proj - proj master started
[2014-12-23 12:00:32.024] [INFO] proj - record saved successfully
[2014-12-23 12:00:32.163] [INFO] proj - record saved successfully
[2014-12-23 12:11:53.230] [INFO] proj - proj master started
