[2015-03-22 13:06:00.480] [INFO] server - Route Sub System: MASTER
Method: GET
URL:/master/retailer/list/undefined
[2015-03-22 13:06:00.578] [INFO] server - Route Sub System: MASTER
Method: GET
URL:/master/invoice/detail/by/id/schneider-seep-zyCZheXmB
[2015-03-22 13:06:00.677] [INFO] server - Route Sub System: MASTER
Method: GET
URL:/master/get/invoice/detail/by/user_id/2014-11-20T07:47:54.778Z/INV-TEST/1000
[2015-03-22 13:06:55.506] [INFO] server - Route Sub System: MASTER
Method: GET
URL:/master/search/invoice/by/pending/undefined
[2015-03-22 13:06:59.972] [INFO] server - Route Sub System: MASTER
Method: GET
URL:/master/search/invoice/by/pending/undefined
[2015-03-22 13:10:07.801] [INFO] server - express loaded
[2015-03-22 13:10:08.447] [INFO] server - all routes are loaded
[2015-03-22 13:10:08.520] [INFO] server - http server started
[2015-03-22 13:10:08.520] [INFO] server - Listening to port 20050
[2015-03-22 13:10:37.647] [INFO] server - Route Sub System: LOGIN
Method: POST
URL:/login/by
[2015-03-22 13:10:40.015] [INFO] server - Route Sub System: MASTER
Method: GET
URL:/master/details/by/user/annectos_program_blaupunkt@annectos.in
[2015-03-22 13:10:40.199] [INFO] server - Route Sub System: MASTER
Method: GET
URL:/master/details/totalsale/by/user/annectos_program_blaupunkt@annectos.in
[2015-03-22 13:10:40.348] [INFO] server - Route Sub System: MASTER
Method: GET
URL:/master/top/si
[2015-03-22 13:10:40.423] [INFO] server - Route Sub System: MASTER
Method: GET
URL:/master/top/si/by/region
[2015-03-22 13:10:40.506] [INFO] server - Route Sub System: MASTER
Method: GET
URL:/master/details/goal/value/of/user/annectos_program_blaupunkt@annectos.in
[2015-03-22 13:10:40.607] [INFO] server - Route Sub System: MASTER
Method: GET
URL:/master/redeemed/points/of/user/annectos_program_blaupunkt@annectos.in
[2015-03-22 13:10:40.759] [INFO] server - Route Sub System: MASTER
Method: GET
URL:/master/invoice/month/proceedings/of/user/annectos_program_blaupunkt@annectos.in
[2015-03-22 13:10:40.896] [INFO] server - Route Sub System: MASTER
Method: GET
URL:/master/si/by/region/dashboard/null
[2015-03-22 13:10:41.028] [INFO] server - Route Sub System: MASTER
Method: GET
URL:/master/details/zoneaddress/by/user/annectos_program_blaupunkt@annectos.in
[2015-03-22 13:10:41.150] [INFO] server - Route Sub System: MASTER
Method: GET
URL:/master/si/by/allIndia/dashboard
[2015-03-22 13:10:42.781] [INFO] server - Route Sub System: MASTER
Method: GET
URL:/master/search/invoice/by/pending/undefined
[2015-03-22 13:10:43.490] [INFO] server - Route Sub System: MASTER
Method: GET
URL:/master/search/invoice/by/pending/undefined
[2015-03-22 13:10:47.758] [INFO] server - Route Sub System: MASTER
Method: GET
URL:/master/retailer/list/undefined
[2015-03-22 13:10:47.853] [INFO] server - Route Sub System: MASTER
Method: GET
URL:/master/invoice/detail/by/id/schneider-seep-zyCZheXmB
[2015-03-22 13:10:47.964] [INFO] server - Route Sub System: MASTER
Method: GET
URL:/master/get/invoice/detail/by/user_id/2014-11-20T07:47:54.778Z/INV-TEST/1000
[2015-03-22 13:14:36.184] [INFO] server - Route Sub System: MASTER
Method: GET
URL:/master/details/zoneaddress/by/user/annectos_program_blaupunkt@annectos.in
[2015-03-22 13:14:59.031] [INFO] server - express loaded
[2015-03-22 13:14:59.933] [INFO] server - all routes are loaded
[2015-03-22 13:15:00.005] [INFO] server - http server started
[2015-03-22 13:15:00.005] [INFO] server - Listening to port 20050
[2015-03-22 13:16:58.397] [INFO] server - Route Sub System: MASTER
Method: GET
URL:/master/search/invoice/by/pending/undefined
[2015-03-22 13:16:59.260] [INFO] server - Route Sub System: MASTER
Method: GET
URL:/master/search/invoice/by/pending/undefined
[2015-03-22 13:17:04.721] [INFO] server - Route Sub System: MASTER
Method: GET
URL:/master/retailer/list/undefined
[2015-03-22 13:17:04.866] [INFO] server - Route Sub System: MASTER
Method: GET
URL:/master/invoice/detail/by/id/schneider-seep-zyCZheXmB
[2015-03-22 13:17:04.996] [INFO] server - Route Sub System: MASTER
Method: GET
URL:/master/get/invoice/detail/by/user_id/2014-11-20T07:47:54.778Z/INV-TEST/1000
[2015-03-22 13:19:22.685] [INFO] server - Route Sub System: MASTER
Method: GET
URL:/master/retailer/list/undefined
[2015-03-22 13:21:19.954] [INFO] server - express loaded
[2015-03-22 13:21:20.952] [INFO] server - all routes are loaded
[2015-03-22 13:21:21.124] [INFO] server - http server started
[2015-03-22 13:21:21.124] [INFO] server - Listening to port 20050
[2015-03-22 13:21:44.895] [INFO] server - Route Sub System: LOGIN
Method: POST
URL:/login/by
[2015-03-22 13:21:46.992] [INFO] server - Route Sub System: MASTER
Method: GET
URL:/master/details/by/user/annectos_program_blaupunkt@annectos.in
[2015-03-22 13:21:47.184] [INFO] server - Route Sub System: MASTER
Method: GET
URL:/master/details/totalsale/by/user/annectos_program_blaupunkt@annectos.in
[2015-03-22 13:21:47.348] [INFO] server - Route Sub System: MASTER
Method: GET
URL:/master/top/si
[2015-03-22 13:21:47.440] [INFO] server - Route Sub System: MASTER
Method: GET
URL:/master/top/si/by/region
[2015-03-22 13:21:47.517] [INFO] server - Route Sub System: MASTER
Method: GET
URL:/master/details/goal/value/of/user/annectos_program_blaupunkt@annectos.in
[2015-03-22 13:21:47.642] [INFO] server - Route Sub System: MASTER
Method: GET
URL:/master/redeemed/points/of/user/annectos_program_blaupunkt@annectos.in
[2015-03-22 13:21:47.814] [INFO] server - Route Sub System: MASTER
Method: GET
URL:/master/invoice/month/proceedings/of/user/annectos_program_blaupunkt@annectos.in
[2015-03-22 13:21:47.919] [INFO] server - Route Sub System: MASTER
Method: GET
URL:/master/si/by/region/dashboard/null
[2015-03-22 13:21:48.039] [INFO] server - Route Sub System: MASTER
Method: GET
URL:/master/si/by/allIndia/dashboard
[2015-03-22 13:21:48.181] [INFO] server - Route Sub System: MASTER
Method: GET
URL:/master/details/zoneaddress/by/user/annectos_program_blaupunkt@annectos.in
[2015-03-22 13:21:49.047] [INFO] server - Route Sub System: MASTER
Method: GET
URL:/master/search/invoice/by/pending/undefined
[2015-03-22 13:21:49.751] [INFO] server - Route Sub System: MASTER
Method: GET
URL:/master/search/invoice/by/pending/undefined
[2015-03-22 13:21:52.718] [INFO] server - Route Sub System: MASTER
Method: GET
URL:/master/retailer/list/undefined
[2015-03-22 13:21:52.811] [INFO] server - Route Sub System: MASTER
Method: GET
URL:/master/invoice/detail/by/id/schneider-seep-zyCZheXmB
[2015-03-22 13:21:52.906] [INFO] server - Route Sub System: MASTER
Method: GET
URL:/master/get/invoice/detail/by/user_id/2014-11-20T07:47:54.778Z/INV-TEST/1000
[2015-03-22 13:23:49.652] [INFO] server - Route Sub System: MASTER
Method: GET
URL:/master/details/zoneaddress/by/user/annectos_program_blaupunkt@annectos.in
[2015-03-22 14:06:38.034] [INFO] server - Route Sub System: uncaught error- exitting
Method: uncaught error
URL:/{}uncaught error
[2015-03-22 14:40:43.981] [INFO] server - express loaded
[2015-03-22 14:40:44.101] [INFO] server - all routes are loaded
[2015-03-22 14:40:44.223] [INFO] server - http server started
[2015-03-22 14:40:44.223] [INFO] server - Listening to port 20050
[2015-03-22 14:45:01.246] [INFO] server - Route Sub System: LOGIN
Method: POST
URL:/login/by
[2015-03-22 14:45:03.507] [INFO] server - Route Sub System: MASTER
Method: GET
URL:/master/details/by/user/annectos_program_blaupunkt@annectos.in
[2015-03-22 14:45:03.519] [INFO] server - Route Sub System: MASTER
Method: GET
URL:/master/details/totalsale/by/user/annectos_program_blaupunkt@annectos.in
[2015-03-22 14:45:03.524] [INFO] server - Route Sub System: MASTER
Method: GET
URL:/master/top/si
[2015-03-22 14:45:03.528] [INFO] server - Route Sub System: MASTER
Method: GET
URL:/master/details/goal/value/of/user/annectos_program_blaupunkt@annectos.in
[2015-03-22 14:45:03.531] [INFO] server - Route Sub System: MASTER
Method: GET
URL:/master/top/si/by/region
[2015-03-22 14:45:03.535] [INFO] server - Route Sub System: MASTER
Method: GET
URL:/master/redeemed/points/of/user/annectos_program_blaupunkt@annectos.in
[2015-03-22 14:45:03.857] [INFO] server - Route Sub System: MASTER
Method: GET
URL:/master/invoice/month/proceedings/of/user/annectos_program_blaupunkt@annectos.in
[2015-03-22 14:45:03.879] [INFO] server - Route Sub System: MASTER
Method: GET
URL:/master/si/by/region/dashboard/null
[2015-03-22 14:45:03.884] [INFO] server - Route Sub System: MASTER
Method: GET
URL:/master/si/by/allIndia/dashboard
[2015-03-22 14:45:04.185] [INFO] server - Route Sub System: MASTER
Method: GET
URL:/master/details/zoneaddress/by/user/annectos_program_blaupunkt@annectos.in
[2015-03-22 14:45:05.987] [INFO] server - Route Sub System: MASTER
Method: GET
URL:/master/search/invoice/by/pending/undefined
[2015-03-22 14:45:06.741] [INFO] server - Route Sub System: MASTER
Method: GET
URL:/master/search/invoice/by/pending/undefined
[2015-03-22 14:47:04.187] [INFO] server - Route Sub System: MASTER
Method: GET
URL:/master/details/zoneaddress/by/user/annectos_program_blaupunkt@annectos.in
[2015-03-22 15:40:27.913] [INFO] server - express loaded
[2015-03-22 15:40:28.679] [INFO] server - all routes are loaded
[2015-03-22 15:40:28.835] [INFO] server - http server started
[2015-03-22 15:40:28.836] [INFO] server - Listening to port 20050
[2015-03-22 15:41:40.324] [INFO] server - Route Sub System: LOGIN
Method: POST
URL:/login/by
[2015-03-22 15:41:42.757] [INFO] server - Route Sub System: MASTER
Method: GET
URL:/master/details/totalsale/by/user/blaupunkt@annectos.in
[2015-03-22 15:41:42.769] [INFO] server - Route Sub System: MASTER
Method: GET
URL:/master/details/by/user/blaupunkt@annectos.in
[2015-03-22 15:41:42.779] [INFO] server - Route Sub System: MASTER
Method: GET
URL:/master/top/si
[2015-03-22 15:41:42.782] [INFO] server - Route Sub System: MASTER
Method: GET
URL:/master/top/si/by/region
[2015-03-22 15:41:42.785] [INFO] server - Route Sub System: MASTER
Method: GET
URL:/master/details/goal/value/of/user/blaupunkt@annectos.in
[2015-03-22 15:41:43.086] [INFO] server - Route Sub System: MASTER
Method: GET
URL:/master/invoice/month/proceedings/of/user/blaupunkt@annectos.in
[2015-03-22 15:41:43.123] [INFO] server - Route Sub System: MASTER
Method: GET
URL:/master/redeemed/points/of/user/blaupunkt@annectos.in
[2015-03-22 15:41:43.126] [INFO] server - Route Sub System: MASTER
Method: GET
URL:/master/si/by/allIndia/dashboard
[2015-03-22 15:41:43.129] [INFO] server - Route Sub System: MASTER
Method: GET
URL:/master/si/by/region/dashboard/North
[2015-03-22 15:41:43.411] [INFO] server - Route Sub System: MASTER
Method: GET
URL:/master/details/zoneaddress/by/user/blaupunkt@annectos.in
[2015-03-22 15:41:51.305] [INFO] server - Route Sub System: MASTER
Method: GET
URL:/master/retailer/list/31
[2015-03-22 15:41:51.307] [INFO] server - Route Sub System: MASTER
Method: GET
URL:/master/search/sku/list/by/sku/undefined
[2015-03-22 15:42:09.505] [INFO] server - Route Sub System: MASTER
Method: POST
URL:/master/aws/upload/file
[2015-03-22 15:42:49.351] [INFO] server - Route Sub System: MASTER
Method: POST
URL:/master/invoice/schneider/add
[2015-03-22 15:43:53.212] [INFO] server - Route Sub System: MASTER
Method: GET
URL:/master/details/zoneaddress/by/user/blaupunkt@annectos.in
[2015-03-22 15:45:53.552] [INFO] server - Route Sub System: MASTER
Method: GET
URL:/master/details/zoneaddress/by/user/blaupunkt@annectos.in
[2015-03-22 15:47:41.081] [INFO] server - express loaded
[2015-03-22 15:47:41.642] [INFO] server - all routes are loaded
[2015-03-22 15:47:41.759] [INFO] server - http server started
[2015-03-22 15:47:41.759] [INFO] server - Listening to port 20050
[2015-03-22 15:47:46.212] [INFO] server - Route Sub System: MASTER
Method: POST
URL:/master/invoice/schneider/add
[2015-03-22 15:49:24.583] [INFO] server - Route Sub System: MASTER
Method: POST
URL:/master/invoice/schneider/add
[2015-03-22 16:13:37.309] [INFO] server - express loaded
[2015-03-22 16:13:37.994] [INFO] server - all routes are loaded
[2015-03-22 16:13:38.065] [INFO] server - http server started
[2015-03-22 16:13:38.065] [INFO] server - Listening to port 20050
[2015-03-22 16:14:15.671] [INFO] server - Route Sub System: LOGIN
Method: POST
URL:/login/by
[2015-03-22 16:14:20.082] [INFO] server - Route Sub System: MASTER
Method: GET
URL:/master/details/by/user/blaupunkt@annectos.in
[2015-03-22 16:14:20.090] [INFO] server - Route Sub System: MASTER
Method: GET
URL:/master/details/totalsale/by/user/blaupunkt@annectos.in
[2015-03-22 16:14:20.095] [INFO] server - Route Sub System: MASTER
Method: GET
URL:/master/top/si
[2015-03-22 16:14:20.098] [INFO] server - Route Sub System: MASTER
Method: GET
URL:/master/top/si/by/region
[2015-03-22 16:14:20.102] [INFO] server - Route Sub System: MASTER
Method: GET
URL:/master/details/goal/value/of/user/blaupunkt@annectos.in
[2015-03-22 16:14:20.104] [INFO] server - Route Sub System: MASTER
Method: GET
URL:/master/redeemed/points/of/user/blaupunkt@annectos.in
[2015-03-22 16:14:20.492] [INFO] server - Route Sub System: MASTER
Method: GET
URL:/master/invoice/month/proceedings/of/user/blaupunkt@annectos.in
[2015-03-22 16:14:20.510] [INFO] server - Route Sub System: MASTER
Method: GET
URL:/master/si/by/region/dashboard/North
[2015-03-22 16:14:20.516] [INFO] server - Route Sub System: MASTER
Method: GET
URL:/master/si/by/allIndia/dashboard
[2015-03-22 16:14:20.889] [INFO] server - Route Sub System: MASTER
Method: GET
URL:/master/details/zoneaddress/by/user/blaupunkt@annectos.in
[2015-03-22 16:14:27.041] [INFO] server - Route Sub System: MASTER
Method: GET
URL:/master/retailer/list/31
[2015-03-22 16:14:27.047] [INFO] server - Route Sub System: MASTER
Method: GET
URL:/master/search/sku/list/by/sku/undefined
[2015-03-22 16:14:36.819] [INFO] server - Route Sub System: MASTER
Method: POST
URL:/master/aws/upload/file
[2015-03-22 16:15:09.430] [INFO] server - Route Sub System: MASTER
Method: POST
URL:/master/invoice/schneider/add
[2015-03-22 16:17:46.111] [INFO] server - Route Sub System: MASTER
Method: GET
URL:/master/details/zoneaddress/by/user/blaupunkt@annectos.in
[2015-03-22 16:17:46.116] [INFO] server - Route Sub System: MASTER
Method: POST
URL:/master/invoice/schneider/add
[2015-03-22 16:25:01.983] [INFO] server - express loaded
[2015-03-22 16:25:02.691] [INFO] server - all routes are loaded
[2015-03-22 16:25:02.755] [INFO] server - http server started
[2015-03-22 16:25:02.755] [INFO] server - Listening to port 20050
[2015-03-22 16:25:48.053] [INFO] server - Route Sub System: LOGIN
Method: POST
URL:/login/by
[2015-03-22 16:25:49.712] [INFO] server - Route Sub System: MASTER
Method: GET
URL:/master/details/by/user/blaupunkt@annectos.in
[2015-03-22 16:25:49.721] [INFO] server - Route Sub System: MASTER
Method: GET
URL:/master/details/totalsale/by/user/blaupunkt@annectos.in
[2015-03-22 16:25:49.727] [INFO] server - Route Sub System: MASTER
Method: GET
URL:/master/top/si
[2015-03-22 16:25:49.731] [INFO] server - Route Sub System: MASTER
Method: GET
URL:/master/top/si/by/region
[2015-03-22 16:25:49.736] [INFO] server - Route Sub System: MASTER
Method: GET
URL:/master/details/goal/value/of/user/blaupunkt@annectos.in
[2015-03-22 16:25:49.739] [INFO] server - Route Sub System: MASTER
Method: GET
URL:/master/redeemed/points/of/user/blaupunkt@annectos.in
[2015-03-22 16:25:49.973] [INFO] server - Route Sub System: MASTER
Method: GET
URL:/master/invoice/month/proceedings/of/user/blaupunkt@annectos.in
[2015-03-22 16:25:49.986] [INFO] server - Route Sub System: MASTER
Method: GET
URL:/master/si/by/region/dashboard/North
[2015-03-22 16:25:49.991] [INFO] server - Route Sub System: MASTER
Method: GET
URL:/master/si/by/allIndia/dashboard
[2015-03-22 16:25:50.229] [INFO] server - Route Sub System: MASTER
Method: GET
URL:/master/details/zoneaddress/by/user/blaupunkt@annectos.in
[2015-03-22 16:25:53.640] [INFO] server - Route Sub System: MASTER
Method: GET
URL:/master/retailer/list/31
[2015-03-22 16:25:53.646] [INFO] server - Route Sub System: MASTER
Method: GET
URL:/master/search/sku/list/by/sku/undefined
[2015-03-22 16:26:05.523] [INFO] server - Route Sub System: MASTER
Method: POST
URL:/master/aws/upload/file
[2015-03-22 16:26:39.248] [INFO] server - Route Sub System: MASTER
Method: POST
URL:/master/invoice/schneider/add
[2015-03-22 16:27:28.257] [INFO] server - Route Sub System: MASTER
Method: GET
URL:/master/get/invoice/detail/by/user/blaupunkt@annectos.in
[2015-03-22 16:27:30.827] [INFO] server - Route Sub System: MASTER
Method: GET
URL:/master/retailer/list/31
[2015-03-22 16:27:30.834] [INFO] server - Route Sub System: MASTER
Method: GET
URL:/master/search/sku/list/by/sku/undefined
[2015-03-22 16:27:45.947] [INFO] server - Route Sub System: MASTER
Method: POST
URL:/master/aws/upload/file
[2015-03-22 16:27:50.237] [INFO] server - Route Sub System: MASTER
Method: GET
URL:/master/details/zoneaddress/by/user/blaupunkt@annectos.in
[2015-03-22 16:28:06.641] [INFO] server - Route Sub System: MASTER
Method: POST
URL:/master/invoice/schneider/add
[2015-03-22 16:29:50.255] [INFO] server - Route Sub System: MASTER
Method: GET
URL:/master/details/zoneaddress/by/user/blaupunkt@annectos.in
[2015-03-22 16:31:50.569] [INFO] server - Route Sub System: MASTER
Method: GET
URL:/master/details/zoneaddress/by/user/blaupunkt@annectos.in
[2015-03-22 16:35:51.139] [INFO] server - express loaded
[2015-03-22 16:35:51.833] [INFO] server - all routes are loaded
[2015-03-22 16:35:51.900] [INFO] server - http server started
[2015-03-22 16:35:51.901] [INFO] server - Listening to port 20050
[2015-03-22 16:36:26.090] [INFO] server - Route Sub System: LOGIN
Method: POST
URL:/login/by
[2015-03-22 16:36:27.588] [INFO] server - Route Sub System: MASTER
Method: GET
URL:/master/details/by/user/blaupunkt@annectos.in
[2015-03-22 16:36:27.596] [INFO] server - Route Sub System: MASTER
Method: GET
URL:/master/details/totalsale/by/user/blaupunkt@annectos.in
[2015-03-22 16:36:27.601] [INFO] server - Route Sub System: MASTER
Method: GET
URL:/master/top/si
[2015-03-22 16:36:27.605] [INFO] server - Route Sub System: MASTER
Method: GET
URL:/master/top/si/by/region
[2015-03-22 16:36:27.608] [INFO] server - Route Sub System: MASTER
Method: GET
URL:/master/details/goal/value/of/user/blaupunkt@annectos.in
[2015-03-22 16:36:27.612] [INFO] server - Route Sub System: MASTER
Method: GET
URL:/master/redeemed/points/of/user/blaupunkt@annectos.in
[2015-03-22 16:36:27.848] [INFO] server - Route Sub System: MASTER
Method: GET
URL:/master/invoice/month/proceedings/of/user/blaupunkt@annectos.in
[2015-03-22 16:36:27.862] [INFO] server - Route Sub System: MASTER
Method: GET
URL:/master/si/by/region/dashboard/North
[2015-03-22 16:36:27.869] [INFO] server - Route Sub System: MASTER
Method: GET
URL:/master/si/by/allIndia/dashboard
[2015-03-22 16:36:28.140] [INFO] server - Route Sub System: MASTER
Method: GET
URL:/master/details/zoneaddress/by/user/blaupunkt@annectos.in
[2015-03-22 16:36:31.626] [INFO] server - Route Sub System: MASTER
Method: GET
URL:/master/retailer/list/31
[2015-03-22 16:36:31.629] [INFO] server - Route Sub System: MASTER
Method: GET
URL:/master/search/sku/list/by/sku/undefined
[2015-03-22 16:36:42.977] [INFO] server - Route Sub System: MASTER
Method: POST
URL:/master/aws/upload/file
[2015-03-22 16:37:03.760] [INFO] server - Route Sub System: MASTER
Method: POST
URL:/master/invoice/schneider/add
[2015-03-22 16:38:28.151] [INFO] server - Route Sub System: MASTER
Method: GET
URL:/master/details/zoneaddress/by/user/blaupunkt@annectos.in
[2015-03-22 16:40:28.465] [INFO] server - Route Sub System: MASTER
Method: GET
URL:/master/details/zoneaddress/by/user/blaupunkt@annectos.in
[2015-03-22 16:57:38.888] [INFO] server - express loaded
[2015-03-22 16:57:39.596] [INFO] server - all routes are loaded
[2015-03-22 16:57:39.662] [INFO] server - http server started
[2015-03-22 16:57:39.663] [INFO] server - Listening to port 20050
[2015-03-22 16:58:16.838] [INFO] server - Route Sub System: LOGIN
Method: POST
URL:/login/by
[2015-03-22 16:58:18.519] [INFO] server - Route Sub System: MASTER
Method: GET
URL:/master/details/by/user/blaupunkt@annectos.in
[2015-03-22 16:58:18.525] [INFO] server - Route Sub System: MASTER
Method: GET
URL:/master/details/totalsale/by/user/blaupunkt@annectos.in
[2015-03-22 16:58:18.532] [INFO] server - Route Sub System: MASTER
Method: GET
URL:/master/top/si
