[2015-03-21 23:31:04.196] [INFO] server - http server started
[2015-03-21 23:31:04.196] [INFO] server - Listening to port 20050
[2015-03-21 23:32:09.970] [INFO] server - Route Sub System: MASTER
Method: GET
URL:/master/search/invoice/by/pending/undefined
[2015-03-21 23:32:10.991] [INFO] server - Route Sub System: MASTER
Method: GET
URL:/master/search/invoice/by/pending/undefined
[2015-03-21 23:32:14.532] [INFO] server - Route Sub System: MASTER
Method: GET
URL:/master/retailer/list/undefined
[2015-03-21 23:32:14.547] [INFO] server - Route Sub System: MASTER
Method: GET
URL:/master/invoice/detail/by/id/schneider-seep-zyCZheXmB
[2015-03-21 23:32:14.553] [INFO] server - Route Sub System: MASTER
Method: GET
URL:/master/get/invoice/detail/by/user_id/2014-11-20T07:47:54.778Z/INV-TEST/1000
[2015-03-21 23:37:04.001] [INFO] server - express loaded
[2015-03-21 23:37:04.744] [INFO] server - all routes are loaded
[2015-03-21 23:37:04.825] [INFO] server - http server started
[2015-03-21 23:37:04.826] [INFO] server - Listening to port 20050
[2015-03-21 23:43:22.508] [INFO] server - express loaded
[2015-03-21 23:43:23.369] [INFO] server - all routes are loaded
[2015-03-21 23:43:23.436] [INFO] server - http server started
[2015-03-21 23:43:23.436] [INFO] server - Listening to port 20050
[2015-03-21 23:43:52.684] [INFO] server - Route Sub System: LOGIN
Method: POST
URL:/login/by
[2015-03-21 23:43:59.487] [INFO] server - Route Sub System: MASTER
Method: GET
URL:/master/details/by/user/annectos_program_blaupunkt@annectos.in
[2015-03-21 23:43:59.709] [INFO] server - Route Sub System: MASTER
Method: GET
URL:/master/details/totalsale/by/user/annectos_program_blaupunkt@annectos.in
[2015-03-21 23:43:59.849] [INFO] server - Route Sub System: MASTER
Method: GET
URL:/master/top/si
[2015-03-21 23:43:59.938] [INFO] server - Route Sub System: MASTER
Method: GET
URL:/master/top/si/by/region
[2015-03-21 23:44:00.018] [INFO] server - Route Sub System: MASTER
Method: GET
URL:/master/details/goal/value/of/user/annectos_program_blaupunkt@annectos.in
[2015-03-21 23:44:00.122] [INFO] server - Route Sub System: MASTER
Method: GET
URL:/master/redeemed/points/of/user/annectos_program_blaupunkt@annectos.in
[2015-03-21 23:44:00.318] [INFO] server - Route Sub System: MASTER
Method: GET
URL:/master/invoice/month/proceedings/of/user/annectos_program_blaupunkt@annectos.in
[2015-03-21 23:44:00.610] [INFO] server - Route Sub System: MASTER
Method: GET
URL:/master/si/by/region/dashboard/null
[2015-03-21 23:44:00.735] [INFO] server - Route Sub System: MASTER
Method: GET
URL:/master/si/by/allIndia/dashboard
[2015-03-21 23:44:01.162] [INFO] server - Route Sub System: MASTER
Method: GET
URL:/master/details/zoneaddress/by/user/annectos_program_blaupunkt@annectos.in
[2015-03-21 23:44:03.617] [INFO] server - Route Sub System: MASTER
Method: GET
URL:/master/search/invoice/by/pending/undefined
[2015-03-21 23:44:04.756] [INFO] server - Route Sub System: MASTER
Method: GET
URL:/master/search/invoice/by/pending/undefined
[2015-03-21 23:44:11.983] [INFO] server - Route Sub System: MASTER
Method: GET
URL:/master/retailer/list/undefined
[2015-03-21 23:44:12.081] [INFO] server - Route Sub System: MASTER
Method: GET
URL:/master/invoice/detail/by/id/schneider-seep-zyCZheXmB
[2015-03-21 23:44:12.190] [INFO] server - Route Sub System: MASTER
Method: GET
URL:/master/get/invoice/detail/by/user_id/2014-11-20T07:47:54.778Z/INV-TEST/1000
[2015-03-21 23:46:12.520] [INFO] server - Route Sub System: MASTER
Method: GET
URL:/master/details/zoneaddress/by/user/annectos_program_blaupunkt@annectos.in
[2015-03-21 23:46:12.634] [INFO] server - Route Sub System: MASTER
Method: GET
URL:/master/retailer/list/undefined
[2015-03-21 23:47:23.241] [INFO] server - express loaded
[2015-03-21 23:47:24.117] [INFO] server - all routes are loaded
[2015-03-21 23:47:24.182] [INFO] server - http server started
[2015-03-21 23:47:24.182] [INFO] server - Listening to port 20050
[2015-03-21 23:47:28.944] [INFO] server - Route Sub System: MASTER
Method: GET
URL:/master/search/invoice/by/pending/undefined
[2015-03-21 23:47:34.478] [INFO] server - Route Sub System: MASTER
Method: GET
URL:/master/search/invoice/by/pending/undefined
[2015-03-21 23:47:38.025] [INFO] server - Route Sub System: MASTER
Method: GET
URL:/master/retailer/list/undefined
[2015-03-21 23:47:38.123] [INFO] server - Route Sub System: MASTER
Method: GET
URL:/master/invoice/detail/by/id/schneider-seep-zyCZheXmB
[2015-03-21 23:47:38.223] [INFO] server - Route Sub System: MASTER
Method: GET
URL:/master/get/invoice/detail/by/user_id/2014-11-20T07:47:54.778Z/INV-TEST/1000
[2015-03-21 23:55:01.688] [INFO] server - express loaded
[2015-03-21 23:55:01.858] [INFO] server - all routes are loaded
[2015-03-21 23:55:01.924] [INFO] server - http server started
[2015-03-21 23:55:01.924] [INFO] server - Listening to port 20050
[2015-03-21 23:55:22.062] [INFO] server - express loaded
[2015-03-21 23:55:22.966] [INFO] server - all routes are loaded
[2015-03-21 23:55:23.132] [INFO] server - http server started
[2015-03-21 23:55:23.133] [INFO] server - Listening to port 20050
[2015-03-21 23:55:56.148] [INFO] server - Route Sub System: LOGIN
Method: POST
URL:/login/by
[2015-03-21 23:55:59.889] [INFO] server - Route Sub System: MASTER
Method: GET
URL:/master/details/by/user/annectos_program_blaupunkt@annectos.in
[2015-03-21 23:56:00.078] [INFO] server - Route Sub System: MASTER
Method: GET
URL:/master/details/totalsale/by/user/annectos_program_blaupunkt@annectos.in
[2015-03-21 23:56:00.216] [INFO] server - Route Sub System: MASTER
Method: GET
URL:/master/top/si
[2015-03-21 23:56:00.307] [INFO] server - Route Sub System: MASTER
Method: GET
URL:/master/top/si/by/region
[2015-03-21 23:56:00.405] [INFO] server - Route Sub System: MASTER
Method: GET
URL:/master/details/goal/value/of/user/annectos_program_blaupunkt@annectos.in
[2015-03-21 23:56:00.523] [INFO] server - Route Sub System: MASTER
Method: GET
URL:/master/redeemed/points/of/user/annectos_program_blaupunkt@annectos.in
[2015-03-21 23:56:00.770] [INFO] server - Route Sub System: MASTER
Method: GET
URL:/master/invoice/month/proceedings/of/user/annectos_program_blaupunkt@annectos.in
[2015-03-21 23:56:01.059] [INFO] server - Route Sub System: MASTER
Method: GET
URL:/master/si/by/region/dashboard/null
[2015-03-21 23:56:01.185] [INFO] server - Route Sub System: MASTER
Method: GET
URL:/master/si/by/allIndia/dashboard
[2015-03-21 23:56:01.671] [INFO] server - Route Sub System: MASTER
Method: GET
URL:/master/details/zoneaddress/by/user/annectos_program_blaupunkt@annectos.in
[2015-03-21 23:56:05.965] [INFO] server - Route Sub System: MASTER
Method: GET
URL:/master/search/invoice/by/pending/undefined
[2015-03-21 23:56:07.103] [INFO] server - Route Sub System: MASTER
Method: GET
URL:/master/search/invoice/by/pending/undefined
[2015-03-21 23:56:10.330] [INFO] server - Route Sub System: MASTER
Method: GET
URL:/master/retailer/list/undefined
[2015-03-21 23:56:10.429] [INFO] server - Route Sub System: MASTER
Method: GET
URL:/master/invoice/detail/by/id/schneider-seep-zyCZheXmB
[2015-03-21 23:56:10.531] [INFO] server - Route Sub System: MASTER
Method: GET
URL:/master/get/invoice/detail/by/user_id/2014-11-20T07:47:54.778Z/INV-TEST/1000
[2015-03-21 23:58:01.715] [INFO] server - Route Sub System: MASTER
Method: GET
URL:/master/details/zoneaddress/by/user/annectos_program_blaupunkt@annectos.in
[2015-03-21 23:59:13.342] [INFO] server - express loaded
[2015-03-21 23:59:14.261] [INFO] server - all routes are loaded
[2015-03-21 23:59:14.417] [INFO] server - http server started
[2015-03-21 23:59:14.418] [INFO] server - Listening to port 20050
[2015-03-21 23:59:20.174] [INFO] server - Route Sub System: MASTER
Method: GET
URL:/master/search/invoice/by/pending/undefined
[2015-03-21 23:59:21.353] [INFO] server - Route Sub System: MASTER
Method: GET
URL:/master/search/invoice/by/pending/undefined
[2015-03-21 23:59:24.838] [INFO] server - Route Sub System: MASTER
Method: GET
URL:/master/retailer/list/undefined
[2015-03-21 23:59:24.955] [INFO] server - Route Sub System: MASTER
Method: GET
URL:/master/invoice/detail/by/id/schneider-seep-zyCZheXmB
[2015-03-21 23:59:25.097] [INFO] server - Route Sub System: MASTER
Method: GET
URL:/master/get/invoice/detail/by/user_id/2014-11-20T07:47:54.778Z/INV-TEST/1000
[2015-03-21 23:59:53.975] [INFO] server - Route Sub System: uncaught error- exitting
Method: uncaught error
URL:/{}uncaught error
[2015-03-22 00:04:41.414] [INFO] server - express loaded
[2015-03-22 00:04:42.174] [INFO] server - all routes are loaded
[2015-03-22 00:04:42.256] [INFO] server - http server started
[2015-03-22 00:04:42.256] [INFO] server - Listening to port 20050
[2015-03-22 00:04:49.157] [INFO] server - Route Sub System: MASTER
Method: GET
URL:/master/search/invoice/by/pending/undefined
[2015-03-22 00:04:50.879] [INFO] server - Route Sub System: MASTER
Method: GET
URL:/master/search/invoice/by/pending/undefined
[2015-03-22 00:04:56.025] [INFO] server - Route Sub System: MASTER
Method: GET
URL:/master/retailer/list/undefined
[2015-03-22 00:04:56.144] [INFO] server - Route Sub System: MASTER
Method: GET
URL:/master/invoice/detail/by/id/schneider-seep-zyCZheXmB
[2015-03-22 00:04:56.256] [INFO] server - Route Sub System: MASTER
Method: GET
URL:/master/get/invoice/detail/by/user_id/2014-11-20T07:47:54.778Z/INV-TEST/1000
[2015-03-22 00:07:16.720] [INFO] server - express loaded
[2015-03-22 00:07:17.598] [INFO] server - all routes are loaded
[2015-03-22 00:07:17.661] [INFO] server - http server started
[2015-03-22 00:07:17.661] [INFO] server - Listening to port 20050
[2015-03-22 00:07:47.641] [INFO] server - Route Sub System: LOGIN
Method: POST
URL:/login/by
[2015-03-22 00:07:53.600] [INFO] server - Route Sub System: MASTER
Method: GET
URL:/master/details/by/user/annectos_program_blaupunkt@annectos.in
[2015-03-22 00:07:53.798] [INFO] server - Route Sub System: MASTER
Method: GET
URL:/master/details/totalsale/by/user/annectos_program_blaupunkt@annectos.in
[2015-03-22 00:07:53.905] [INFO] server - Route Sub System: MASTER
Method: GET
URL:/master/top/si
[2015-03-22 00:07:53.977] [INFO] server - Route Sub System: MASTER
Method: GET
URL:/master/top/si/by/region
[2015-03-22 00:07:54.052] [INFO] server - Route Sub System: MASTER
Method: GET
URL:/master/details/goal/value/of/user/annectos_program_blaupunkt@annectos.in
[2015-03-22 00:07:54.165] [INFO] server - Route Sub System: MASTER
Method: GET
URL:/master/redeemed/points/of/user/annectos_program_blaupunkt@annectos.in
[2015-03-22 00:07:54.507] [INFO] server - Route Sub System: MASTER
Method: GET
URL:/master/invoice/month/proceedings/of/user/annectos_program_blaupunkt@annectos.in
[2015-03-22 00:07:54.825] [INFO] server - Route Sub System: MASTER
Method: GET
URL:/master/si/by/region/dashboard/null
[2015-03-22 00:07:54.925] [INFO] server - Route Sub System: MASTER
Method: GET
URL:/master/si/by/allIndia/dashboard
[2015-03-22 00:07:55.417] [INFO] server - Route Sub System: MASTER
Method: GET
URL:/master/details/zoneaddress/by/user/annectos_program_blaupunkt@annectos.in
[2015-03-22 00:07:56.795] [INFO] server - Route Sub System: MASTER
Method: GET
URL:/master/search/invoice/by/pending/undefined
[2015-03-22 00:07:57.989] [INFO] server - Route Sub System: MASTER
Method: GET
URL:/master/search/invoice/by/pending/undefined
[2015-03-22 00:08:02.034] [INFO] server - Route Sub System: MASTER
Method: GET
URL:/master/retailer/list/undefined
[2015-03-22 00:08:02.132] [INFO] server - Route Sub System: MASTER
Method: GET
URL:/master/invoice/detail/by/id/schneider-seep-zyCZheXmB
[2015-03-22 00:08:02.232] [INFO] server - Route Sub System: MASTER
Method: GET
URL:/master/get/invoice/detail/by/user_id/2014-11-20T07:47:54.778Z/INV-TEST/1000
[2015-03-22 00:10:34.336] [INFO] server - Route Sub System: MASTER
Method: GET
URL:/master/details/zoneaddress/by/user/annectos_program_blaupunkt@annectos.in
[2015-03-22 00:10:34.437] [INFO] server - Route Sub System: MASTER
Method: GET
URL:/master/get/invoice/detail/by/user_id/2014-11-20T07:47:54.778Z/INV-TEST/1000
[2015-03-22 00:10:55.003] [INFO] server - Route Sub System: MASTER
Method: GET
URL:/master/invoice/detail/by/id/schneider-seep-zyCZheXmB
[2015-03-22 00:10:55.102] [INFO] server - Route Sub System: MASTER
Method: GET
URL:/master/retailer/list/undefined
[2015-03-22 00:18:25.471] [INFO] server - express loaded
[2015-03-22 00:18:26.396] [INFO] server - all routes are loaded
[2015-03-22 00:18:26.558] [INFO] server - http server started
[2015-03-22 00:18:26.558] [INFO] server - Listening to port 20050
[2015-03-22 00:18:54.629] [INFO] server - Route Sub System: LOGIN
Method: POST
URL:/login/by
[2015-03-22 00:18:58.374] [INFO] server - Route Sub System: MASTER
Method: GET
URL:/master/details/by/user/annectos_program_blaupunkt@annectos.in
[2015-03-22 00:18:58.629] [INFO] server - Route Sub System: MASTER
Method: GET
URL:/master/details/totalsale/by/user/annectos_program_blaupunkt@annectos.in
[2015-03-22 00:18:58.769] [INFO] server - Route Sub System: MASTER
Method: GET
URL:/master/top/si
[2015-03-22 00:18:58.847] [INFO] server - Route Sub System: MASTER
Method: GET
URL:/master/top/si/by/region
[2015-03-22 00:18:58.923] [INFO] server - Route Sub System: MASTER
Method: GET
URL:/master/details/goal/value/of/user/annectos_program_blaupunkt@annectos.in
[2015-03-22 00:18:59.025] [INFO] server - Route Sub System: MASTER
Method: GET
URL:/master/redeemed/points/of/user/annectos_program_blaupunkt@annectos.in
[2015-03-22 00:18:59.242] [INFO] server - Route Sub System: MASTER
Method: GET
URL:/master/invoice/month/proceedings/of/user/annectos_program_blaupunkt@annectos.in
[2015-03-22 00:18:59.568] [INFO] server - Route Sub System: MASTER
Method: GET
URL:/master/si/by/region/dashboard/null
[2015-03-22 00:18:59.694] [INFO] server - Route Sub System: MASTER
Method: GET
URL:/master/si/by/allIndia/dashboard
[2015-03-22 00:19:00.127] [INFO] server - Route Sub System: MASTER
Method: GET
URL:/master/details/zoneaddress/by/user/annectos_program_blaupunkt@annectos.in
[2015-03-22 00:19:00.921] [INFO] server - Route Sub System: MASTER
Method: GET
URL:/master/search/invoice/by/pending/undefined
[2015-03-22 00:19:02.734] [INFO] server - Route Sub System: MASTER
Method: GET
URL:/master/search/invoice/by/pending/undefined
[2015-03-22 00:19:05.062] [INFO] server - Route Sub System: MASTER
Method: GET
URL:/master/retailer/list/undefined
[2015-03-22 00:19:05.160] [INFO] server - Route Sub System: MASTER
Method: GET
URL:/master/invoice/detail/by/id/schneider-seep-zyCZheXmB
[2015-03-22 00:19:05.260] [INFO] server - Route Sub System: MASTER
Method: GET
URL:/master/get/invoice/detail/by/user_id/2014-11-20T07:47:54.778Z/INV-TEST/1000
[2015-03-22 00:21:00.207] [INFO] server - Route Sub System: MASTER
Method: GET
URL:/master/details/zoneaddress/by/user/annectos_program_blaupunkt@annectos.in
[2015-03-22 00:23:00.482] [INFO] server - Route Sub System: MASTER
Method: GET
URL:/master/details/zoneaddress/by/user/annectos_program_blaupunkt@annectos.in
[2015-03-22 00:23:24.821] [INFO] server - express loaded
[2015-03-22 00:23:25.569] [INFO] server - all routes are loaded
[2015-03-22 00:23:25.655] [INFO] server - http server started
[2015-03-22 00:23:25.655] [INFO] server - Listening to port 20050
[2015-03-22 00:23:40.001] [INFO] server - Route Sub System: MASTER
Method: GET
URL:/master/search/invoice/by/pending/undefined
[2015-03-22 00:23:41.127] [INFO] server - Route Sub System: MASTER
Method: GET
URL:/master/search/invoice/by/pending/undefined
[2015-03-22 00:23:43.578] [INFO] server - Route Sub System: MASTER
Method: GET
URL:/master/retailer/list/undefined
[2015-03-22 00:23:43.699] [INFO] server - Route Sub System: MASTER
Method: GET
URL:/master/invoice/detail/by/id/schneider-seep-zyCZheXmB
[2015-03-22 00:23:43.806] [INFO] server - Route Sub System: MASTER
Method: GET
URL:/master/get/invoice/detail/by/user_id/2014-11-20T07:47:54.778Z/INV-TEST/1000
[2015-03-22 12:58:42.530] [INFO] server - express loaded
[2015-03-22 12:58:43.175] [INFO] server - all routes are loaded
[2015-03-22 12:58:43.245] [INFO] server - http server started
[2015-03-22 12:58:43.245] [INFO] server - Listening to port 20050
[2015-03-22 12:59:24.901] [INFO] server - Route Sub System: LOGIN
Method: POST
URL:/login/by
[2015-03-22 12:59:34.732] [INFO] server - Route Sub System: MASTER
Method: GET
URL:/master/details/by/user/annectos_program_blaupunkt@annectos.in
[2015-03-22 12:59:34.879] [INFO] server - Route Sub System: MASTER
Method: GET
URL:/master/details/totalsale/by/user/annectos_program_blaupunkt@annectos.in
[2015-03-22 12:59:34.994] [INFO] server - Route Sub System: MASTER
Method: GET
URL:/master/top/si
[2015-03-22 12:59:35.068] [INFO] server - Route Sub System: MASTER
Method: GET
URL:/master/top/si/by/region
[2015-03-22 12:59:35.141] [INFO] server - Route Sub System: MASTER
Method: GET
URL:/master/details/zoneaddress/by/user/annectos_program_blaupunkt@annectos.in
[2015-03-22 12:59:35.241] [INFO] server - Route Sub System: MASTER
Method: GET
URL:/master/details/goal/value/of/user/annectos_program_blaupunkt@annectos.in
[2015-03-22 12:59:35.393] [INFO] server - Route Sub System: MASTER
Method: GET
URL:/master/redeemed/points/of/user/annectos_program_blaupunkt@annectos.in
[2015-03-22 12:59:35.619] [INFO] server - Route Sub System: MASTER
Method: GET
URL:/master/invoice/month/proceedings/of/user/annectos_program_blaupunkt@annectos.in
[2015-03-22 12:59:36.187] [INFO] server - Route Sub System: MASTER
Method: GET
URL:/master/si/by/region/dashboard/null
[2015-03-22 12:59:36.315] [INFO] server - Route Sub System: MASTER
Method: GET
URL:/master/si/by/allIndia/dashboard
[2015-03-22 12:59:37.065] [INFO] server - Route Sub System: MASTER
Method: GET
URL:/master/search/invoice/by/pending/undefined
[2015-03-22 12:59:37.772] [INFO] server - Route Sub System: MASTER
Method: GET
URL:/master/search/invoice/by/pending/undefined
[2015-03-22 12:59:39.958] [INFO] server - Route Sub System: MASTER
Method: GET
URL:/master/retailer/list/undefined
[2015-03-22 12:59:40.057] [INFO] server - Route Sub System: MASTER
Method: GET
URL:/master/invoice/detail/by/id/schneider-seep-zyCZheXmB
[2015-03-22 12:59:40.159] [INFO] server - Route Sub System: MASTER
Method: GET
URL:/master/get/invoice/detail/by/user_id/2014-11-20T07:47:54.778Z/INV-TEST/1000
[2015-03-22 13:01:31.320] [INFO] server - Route Sub System: MASTER
Method: GET
URL:/master/search/invoice/by/pending/undefined
[2015-03-22 13:01:32.106] [INFO] server - Route Sub System: MASTER
Method: GET
URL:/master/search/invoice/by/pending/undefined
[2015-03-22 13:01:35.135] [INFO] server - Route Sub System: MASTER
Method: GET
URL:/master/details/zoneaddress/by/user/annectos_program_blaupunkt@annectos.in
[2015-03-22 13:01:37.998] [INFO] server - Route Sub System: MASTER
Method: GET
URL:/master/retailer/list/undefined
[2015-03-22 13:01:38.086] [INFO] server - Route Sub System: MASTER
Method: GET
URL:/master/invoice/detail/by/id/schneider-seep-f1-bI4gHS
[2015-03-22 13:01:38.172] [INFO] server - Route Sub System: MASTER
Method: GET
URL:/master/get/invoice/detail/by/user_id/2014-09-18T13:00:54.953Z/Invoicetest1/200
[2015-03-22 13:04:29.761] [INFO] server - express loaded
[2015-03-22 13:04:30.637] [INFO] server - all routes are loaded
[2015-03-22 13:04:30.795] [INFO] server - http server started
[2015-03-22 13:04:30.796] [INFO] server - Listening to port 20050
[2015-03-22 13:04:39.731] [INFO] server - Route Sub System: MASTER
Method: GET
URL:/master/search/invoice/by/pending/undefined
[2015-03-22 13:04:42.630] [INFO] server - Route Sub System: MASTER
Method: GET
URL:/master/search/invoice/by/pending/undefined
[2015-03-22 13:04:51.958] [INFO] server - Route Sub System: MASTER
Method: GET
URL:/master/retailer/list/undefined
[2015-03-22 13:04:52.050] [INFO] server - Route Sub System: MASTER
Method: GET
URL:/master/invoice/detail/by/id/schneider-seep-M1iWYxkBS
[2015-03-22 13:04:52.149] [INFO] server - Route Sub System: MASTER
Method: GET
URL:/master/get/invoice/detail/by/user_id/2015-02-02T00:00:00.000Z/454455/7500
[2015-03-22 13:05:54.004] [INFO] server - Route Sub System: MASTER
Method: GET
URL:/master/search/invoice/by/pending/undefined
[2015-03-22 13:05:56.115] [INFO] server - Route Sub System: MASTER
Method: GET
URL:/master/search/invoice/by/pending/undefined
