[2015-03-21 20:43:13.579] [INFO] server - Route Sub System: MASTER
Method: GET
URL:/master/get/invoice/detail/by/user_id/2014-09-18T13:00:54.953Z/Invoicetest1/200
[2015-03-21 20:43:19.515] [INFO] server - Route Sub System: MASTER
Method: GET
URL:/master/search/invoice/by/pending/undefined
[2015-03-21 20:43:20.132] [INFO] server - Route Sub System: MASTER
Method: GET
URL:/master/search/invoice/by/pending/undefined
[2015-03-21 20:43:22.896] [INFO] server - Route Sub System: MASTER
Method: GET
URL:/master/retailer/list/undefined
[2015-03-21 20:43:22.901] [INFO] server - Route Sub System: MASTER
Method: GET
URL:/master/invoice/detail/by/id/schneider-seep-M1iWYxkBS
[2015-03-21 20:43:22.909] [INFO] server - Route Sub System: MASTER
Method: GET
URL:/master/get/invoice/detail/by/user_id/2015-02-02T00:00:00.000Z/454455/7500
[2015-03-21 20:43:27.710] [INFO] server - Route Sub System: MASTER
Method: GET
URL:/master/search/invoice/by/pending/undefined
[2015-03-21 20:43:28.556] [INFO] server - Route Sub System: MASTER
Method: GET
URL:/master/search/invoice/by/pending/undefined
[2015-03-21 20:43:35.261] [INFO] server - Route Sub System: MASTER
Method: GET
URL:/master/retailer/list/undefined
[2015-03-21 20:43:35.265] [INFO] server - Route Sub System: MASTER
Method: GET
URL:/master/invoice/detail/by/id/schneider-seep-G1VeSrK5H
[2015-03-21 20:43:35.270] [INFO] server - Route Sub System: MASTER
Method: GET
URL:/master/get/invoice/detail/by/user_id/2014-08-12T07:07:32.316Z/invoicetestdip1/2000
[2015-03-21 20:44:32.154] [INFO] server - express loaded
[2015-03-21 20:44:32.292] [INFO] server - all routes are loaded
[2015-03-21 20:44:32.359] [INFO] server - http server started
[2015-03-21 20:44:32.360] [INFO] server - Listening to port 20050
[2015-03-21 20:44:41.863] [INFO] server - Route Sub System: MASTER
Method: GET
URL:/master/search/invoice/by/pending/undefined
[2015-03-21 20:44:42.571] [INFO] server - Route Sub System: MASTER
Method: GET
URL:/master/search/invoice/by/pending/undefined
[2015-03-21 20:44:45.260] [INFO] server - Route Sub System: MASTER
Method: GET
URL:/master/retailer/list/undefined
[2015-03-21 20:44:45.272] [INFO] server - Route Sub System: MASTER
Method: GET
URL:/master/invoice/detail/by/id/schneider-seep-zyCZheXmB
[2015-03-21 20:44:45.294] [INFO] server - Route Sub System: MASTER
Method: GET
URL:/master/get/invoice/detail/by/user_id/2014-11-20T07:47:54.778Z/INV-TEST/1000
[2015-03-21 20:44:55.470] [INFO] server - Route Sub System: MASTER
Method: GET
URL:/master/search/invoice/by/pending/undefined
[2015-03-21 20:44:56.302] [INFO] server - Route Sub System: MASTER
Method: GET
URL:/master/search/invoice/by/pending/undefined
[2015-03-21 20:45:23.648] [INFO] server - express loaded
[2015-03-21 20:45:23.777] [INFO] server - all routes are loaded
[2015-03-21 20:45:23.837] [INFO] server - http server started
[2015-03-21 20:45:23.838] [INFO] server - Listening to port 20050
[2015-03-21 20:45:53.317] [INFO] server - Route Sub System: LOGIN
Method: POST
URL:/login/by
[2015-03-21 20:45:55.912] [INFO] server - Route Sub System: MASTER
Method: GET
URL:/master/details/by/user/annectos_program_blaupunkt@annectos.in
[2015-03-21 20:45:55.929] [INFO] server - Route Sub System: MASTER
Method: GET
URL:/master/details/totalsale/by/user/annectos_program_blaupunkt@annectos.in
[2015-03-21 20:45:55.935] [INFO] server - Route Sub System: MASTER
Method: GET
URL:/master/top/si
[2015-03-21 20:45:55.939] [INFO] server - Route Sub System: MASTER
Method: GET
URL:/master/top/si/by/region
[2015-03-21 20:45:55.948] [INFO] server - Route Sub System: MASTER
Method: GET
URL:/master/details/goal/value/of/user/annectos_program_blaupunkt@annectos.in
[2015-03-21 20:45:55.954] [INFO] server - Route Sub System: MASTER
Method: GET
URL:/master/redeemed/points/of/user/annectos_program_blaupunkt@annectos.in
[2015-03-21 20:45:56.343] [INFO] server - Route Sub System: MASTER
Method: GET
URL:/master/invoice/month/proceedings/of/user/annectos_program_blaupunkt@annectos.in
[2015-03-21 20:45:56.361] [INFO] server - Route Sub System: MASTER
Method: GET
URL:/master/si/by/region/dashboard/null
[2015-03-21 20:45:56.365] [INFO] server - Route Sub System: MASTER
Method: GET
URL:/master/si/by/allIndia/dashboard
[2015-03-21 20:45:56.772] [INFO] server - Route Sub System: MASTER
Method: GET
URL:/master/details/zoneaddress/by/user/annectos_program_blaupunkt@annectos.in
[2015-03-21 20:45:59.413] [INFO] server - Route Sub System: MASTER
Method: GET
URL:/master/search/invoice/by/pending/undefined
[2015-03-21 20:46:00.172] [INFO] server - Route Sub System: MASTER
Method: GET
URL:/master/search/invoice/by/pending/undefined
[2015-03-21 20:46:04.077] [INFO] server - Route Sub System: MASTER
Method: GET
URL:/master/invoice/detail/by/id/schneider-seep-zyCZheXmB
[2015-03-21 20:46:04.085] [INFO] server - Route Sub System: MASTER
Method: GET
URL:/master/retailer/list/undefined
[2015-03-21 20:46:04.092] [INFO] server - Route Sub System: MASTER
Method: GET
URL:/master/get/invoice/detail/by/user_id/2014-11-20T07:47:54.778Z/INV-TEST/1000
[2015-03-21 20:46:50.372] [INFO] server - express loaded
[2015-03-21 20:46:50.500] [INFO] server - all routes are loaded
[2015-03-21 20:46:50.562] [INFO] server - http server started
[2015-03-21 20:46:50.562] [INFO] server - Listening to port 20050
[2015-03-21 20:46:58.004] [INFO] server - Route Sub System: MASTER
Method: GET
URL:/master/search/invoice/by/pending/undefined
[2015-03-21 20:46:58.618] [INFO] server - Route Sub System: MASTER
Method: GET
URL:/master/search/invoice/by/pending/undefined
[2015-03-21 20:47:00.777] [INFO] server - Route Sub System: MASTER
Method: GET
URL:/master/retailer/list/undefined
[2015-03-21 20:47:00.790] [INFO] server - Route Sub System: MASTER
Method: GET
URL:/master/invoice/detail/by/id/schneider-seep-zyCZheXmB
[2015-03-21 20:47:00.795] [INFO] server - Route Sub System: MASTER
Method: GET
URL:/master/get/invoice/detail/by/user_id/2014-11-20T07:47:54.778Z/INV-TEST/1000
[2015-03-21 20:47:47.348] [INFO] server - express loaded
[2015-03-21 20:47:47.475] [INFO] server - all routes are loaded
[2015-03-21 20:47:47.536] [INFO] server - http server started
[2015-03-21 20:47:47.536] [INFO] server - Listening to port 20050
[2015-03-21 20:47:52.375] [INFO] server - Route Sub System: MASTER
Method: GET
URL:/master/search/invoice/by/pending/undefined
[2015-03-21 20:47:53.121] [INFO] server - Route Sub System: MASTER
Method: GET
URL:/master/search/invoice/by/pending/undefined
[2015-03-21 20:47:55.596] [INFO] server - Route Sub System: MASTER
Method: GET
URL:/master/retailer/list/undefined
[2015-03-21 20:47:55.607] [INFO] server - Route Sub System: MASTER
Method: GET
URL:/master/invoice/detail/by/id/schneider-seep-zyCZheXmB
[2015-03-21 20:47:55.611] [INFO] server - Route Sub System: MASTER
Method: GET
URL:/master/get/invoice/detail/by/user_id/2014-11-20T07:47:54.778Z/INV-TEST/1000
[2015-03-21 20:49:06.383] [INFO] server - express loaded
[2015-03-21 20:49:06.510] [INFO] server - all routes are loaded
[2015-03-21 20:49:06.572] [INFO] server - http server started
[2015-03-21 20:49:06.572] [INFO] server - Listening to port 20050
[2015-03-21 20:49:09.898] [INFO] server - Route Sub System: uncaught error- exitting
Method: uncaught error
URL:/{}uncaught error
[2015-03-21 20:49:12.412] [INFO] server - Route Sub System: MASTER
Method: GET
URL:/master/search/invoice/by/pending/undefined
[2015-03-21 20:49:13.149] [INFO] server - Route Sub System: MASTER
Method: GET
URL:/master/search/invoice/by/pending/undefined
[2015-03-21 20:49:20.934] [INFO] server - Route Sub System: MASTER
Method: GET
URL:/master/retailer/list/undefined
[2015-03-21 20:49:20.947] [INFO] server - Route Sub System: MASTER
Method: GET
URL:/master/invoice/detail/by/id/schneider-seep-G1VeSrK5H
[2015-03-21 20:49:20.953] [INFO] server - Route Sub System: MASTER
Method: GET
URL:/master/get/invoice/detail/by/user_id/2014-08-12T07:07:32.316Z/invoicetestdip1/2000
[2015-03-21 20:56:02.649] [INFO] server - express loaded
[2015-03-21 20:56:02.804] [INFO] server - all routes are loaded
[2015-03-21 20:56:02.872] [INFO] server - http server started
[2015-03-21 20:56:02.872] [INFO] server - Listening to port 20050
[2015-03-21 20:56:41.879] [INFO] server - Route Sub System: LOGIN
Method: POST
URL:/login/by
[2015-03-21 20:56:44.281] [INFO] server - Route Sub System: MASTER
Method: GET
URL:/master/details/by/user/annectos_program_blaupunkt@annectos.in
[2015-03-21 20:56:44.295] [INFO] server - Route Sub System: MASTER
Method: GET
URL:/master/details/totalsale/by/user/annectos_program_blaupunkt@annectos.in
[2015-03-21 20:56:44.304] [INFO] server - Route Sub System: MASTER
Method: GET
URL:/master/top/si
[2015-03-21 20:56:44.310] [INFO] server - Route Sub System: MASTER
Method: GET
URL:/master/top/si/by/region
[2015-03-21 20:56:44.336] [INFO] server - Route Sub System: MASTER
Method: GET
URL:/master/details/goal/value/of/user/annectos_program_blaupunkt@annectos.in
[2015-03-21 20:56:44.341] [INFO] server - Route Sub System: MASTER
Method: GET
URL:/master/redeemed/points/of/user/annectos_program_blaupunkt@annectos.in
[2015-03-21 20:56:44.699] [INFO] server - Route Sub System: MASTER
Method: GET
URL:/master/invoice/month/proceedings/of/user/annectos_program_blaupunkt@annectos.in
[2015-03-21 20:56:44.710] [INFO] server - Route Sub System: MASTER
Method: GET
URL:/master/si/by/region/dashboard/null
[2015-03-21 20:56:44.718] [INFO] server - Route Sub System: MASTER
Method: GET
URL:/master/si/by/allIndia/dashboard
[2015-03-21 20:56:45.251] [INFO] server - Route Sub System: MASTER
Method: GET
URL:/master/details/zoneaddress/by/user/annectos_program_blaupunkt@annectos.in
[2015-03-21 20:56:48.815] [INFO] server - Route Sub System: MASTER
Method: GET
URL:/master/search/invoice/by/pending/undefined
[2015-03-21 20:56:49.615] [INFO] server - Route Sub System: MASTER
Method: GET
URL:/master/search/invoice/by/pending/undefined
[2015-03-21 20:56:52.857] [INFO] server - Route Sub System: MASTER
Method: GET
URL:/master/retailer/list/undefined
[2015-03-21 20:56:52.864] [INFO] server - Route Sub System: MASTER
Method: GET
URL:/master/invoice/detail/by/id/schneider-seep-zyCZheXmB
[2015-03-21 20:56:52.877] [INFO] server - Route Sub System: MASTER
Method: GET
URL:/master/get/invoice/detail/by/user_id/2014-11-20T07:47:54.778Z/INV-TEST/1000
[2015-03-21 20:57:28.889] [INFO] server - express loaded
[2015-03-21 20:57:29.014] [INFO] server - all routes are loaded
[2015-03-21 20:57:29.075] [INFO] server - http server started
[2015-03-21 20:57:29.076] [INFO] server - Listening to port 20050
[2015-03-21 20:57:36.174] [INFO] server - Route Sub System: MASTER
Method: GET
URL:/master/search/invoice/by/pending/undefined
[2015-03-21 20:57:37.142] [INFO] server - Route Sub System: MASTER
Method: GET
URL:/master/search/invoice/by/pending/undefined
[2015-03-21 20:57:39.365] [INFO] server - Route Sub System: MASTER
Method: GET
URL:/master/retailer/list/undefined
[2015-03-21 20:57:39.376] [INFO] server - Route Sub System: MASTER
Method: GET
URL:/master/invoice/detail/by/id/schneider-seep-zyCZheXmB
[2015-03-21 20:57:39.381] [INFO] server - Route Sub System: MASTER
Method: GET
URL:/master/get/invoice/detail/by/user_id/2014-11-20T07:47:54.778Z/INV-TEST/1000
[2015-03-21 20:57:45.415] [INFO] server - Route Sub System: MASTER
Method: GET
URL:/master/search/invoice/by/pending/undefined
[2015-03-21 20:57:46.252] [INFO] server - Route Sub System: MASTER
Method: GET
URL:/master/search/invoice/by/pending/undefined
[2015-03-21 20:57:48.920] [INFO] server - Route Sub System: MASTER
Method: GET
URL:/master/retailer/list/undefined
[2015-03-21 20:57:48.927] [INFO] server - Route Sub System: MASTER
Method: GET
URL:/master/invoice/detail/by/id/schneider-seep-f1-bI4gHS
[2015-03-21 20:57:48.935] [INFO] server - Route Sub System: MASTER
Method: GET
URL:/master/get/invoice/detail/by/user_id/2014-09-18T13:00:54.953Z/Invoicetest1/200
[2015-03-21 20:57:55.339] [INFO] server - Route Sub System: MASTER
Method: GET
URL:/master/search/invoice/by/pending/undefined
[2015-03-21 20:57:56.197] [INFO] server - Route Sub System: MASTER
Method: GET
URL:/master/search/invoice/by/pending/undefined
[2015-03-21 20:58:01.672] [INFO] server - Route Sub System: MASTER
Method: GET
URL:/master/retailer/list/undefined
[2015-03-21 20:58:01.679] [INFO] server - Route Sub System: MASTER
Method: GET
URL:/master/get/invoice/detail/by/user_id/2014-10-15T06:33:46.317Z/INDipTest/1000
[2015-03-21 20:58:01.684] [INFO] server - Route Sub System: MASTER
Method: GET
URL:/master/invoice/detail/by/id/schneider-seep-zkzomltcS
[2015-03-21 20:59:33.093] [INFO] server - express loaded
[2015-03-21 20:59:33.206] [INFO] server - all routes are loaded
[2015-03-21 20:59:33.266] [INFO] server - http server started
[2015-03-21 20:59:33.266] [INFO] server - Listening to port 20050
[2015-03-21 20:59:43.553] [INFO] server - Route Sub System: MASTER
Method: GET
URL:/master/search/invoice/by/pending/undefined
[2015-03-21 20:59:44.531] [INFO] server - Route Sub System: MASTER
Method: GET
URL:/master/search/invoice/by/pending/undefined
[2015-03-21 20:59:47.590] [INFO] server - Route Sub System: MASTER
Method: GET
URL:/master/retailer/list/undefined
[2015-03-21 20:59:47.607] [INFO] server - Route Sub System: MASTER
Method: GET
URL:/master/invoice/detail/by/id/schneider-seep-zyCZheXmB
[2015-03-21 20:59:47.611] [INFO] server - Route Sub System: MASTER
Method: GET
URL:/master/get/invoice/detail/by/user_id/2014-11-20T07:47:54.778Z/INV-TEST/1000
[2015-03-21 21:03:46.643] [INFO] server - express loaded
[2015-03-21 21:03:46.773] [INFO] server - all routes are loaded
[2015-03-21 21:03:46.835] [INFO] server - http server started
[2015-03-21 21:03:46.835] [INFO] server - Listening to port 20050
[2015-03-21 21:03:54.942] [INFO] server - Route Sub System: MASTER
Method: GET
URL:/master/search/invoice/by/pending/undefined
[2015-03-21 21:03:56.040] [INFO] server - Route Sub System: MASTER
Method: GET
URL:/master/search/invoice/by/pending/undefined
[2015-03-21 21:03:58.876] [INFO] server - Route Sub System: MASTER
Method: GET
URL:/master/retailer/list/undefined
[2015-03-21 21:03:58.891] [INFO] server - Route Sub System: MASTER
Method: GET
URL:/master/invoice/detail/by/id/schneider-seep-zyCZheXmB
[2015-03-21 21:03:58.901] [INFO] server - Route Sub System: MASTER
Method: GET
URL:/master/get/invoice/detail/by/user_id/2014-11-20T07:47:54.778Z/INV-TEST/1000
[2015-03-21 23:25:41.224] [INFO] server - express loaded
[2015-03-21 23:25:41.349] [INFO] server - all routes are loaded
[2015-03-21 23:25:41.409] [INFO] server - http server started
[2015-03-21 23:25:41.409] [INFO] server - Listening to port 20050
[2015-03-21 23:25:52.419] [INFO] server - express loaded
[2015-03-21 23:25:52.545] [INFO] server - all routes are loaded
[2015-03-21 23:25:52.604] [INFO] server - http server started
[2015-03-21 23:25:52.605] [INFO] server - Listening to port 20050
[2015-03-21 23:26:22.764] [INFO] server - Route Sub System: LOGIN
Method: POST
URL:/login/by
[2015-03-21 23:26:26.473] [INFO] server - Route Sub System: MASTER
Method: GET
URL:/master/details/by/user/annectos_program_blaupunkt@annectos.in
[2015-03-21 23:26:26.505] [INFO] server - Route Sub System: MASTER
Method: GET
URL:/master/details/totalsale/by/user/annectos_program_blaupunkt@annectos.in
[2015-03-21 23:26:26.516] [INFO] server - Route Sub System: MASTER
Method: GET
URL:/master/top/si
[2015-03-21 23:26:26.522] [INFO] server - Route Sub System: MASTER
Method: GET
URL:/master/top/si/by/region
[2015-03-21 23:26:26.526] [INFO] server - Route Sub System: MASTER
Method: GET
URL:/master/details/goal/value/of/user/annectos_program_blaupunkt@annectos.in
[2015-03-21 23:26:26.530] [INFO] server - Route Sub System: MASTER
Method: GET
URL:/master/invoice/month/proceedings/of/user/annectos_program_blaupunkt@annectos.in
[2015-03-21 23:26:27.286] [INFO] server - Route Sub System: MASTER
Method: GET
URL:/master/redeemed/points/of/user/annectos_program_blaupunkt@annectos.in
[2015-03-21 23:26:27.309] [INFO] server - Route Sub System: MASTER
Method: GET
URL:/master/si/by/region/dashboard/null
[2015-03-21 23:26:27.325] [INFO] server - Route Sub System: MASTER
Method: GET
URL:/master/si/by/allIndia/dashboard
[2015-03-21 23:26:28.212] [INFO] server - Route Sub System: MASTER
Method: GET
URL:/master/details/zoneaddress/by/user/annectos_program_blaupunkt@annectos.in
[2015-03-21 23:26:29.022] [INFO] server - Route Sub System: MASTER
Method: GET
URL:/master/search/invoice/by/pending/undefined
[2015-03-21 23:26:30.063] [INFO] server - Route Sub System: MASTER
Method: GET
URL:/master/search/invoice/by/pending/undefined
[2015-03-21 23:26:34.457] [INFO] server - Route Sub System: MASTER
Method: GET
URL:/master/retailer/list/undefined
[2015-03-21 23:26:34.462] [INFO] server - Route Sub System: MASTER
Method: GET
URL:/master/invoice/detail/by/id/schneider-seep-zyCZheXmB
[2015-03-21 23:26:34.467] [INFO] server - Route Sub System: MASTER
Method: GET
URL:/master/get/invoice/detail/by/user_id/2014-11-20T07:47:54.778Z/INV-TEST/1000
[2015-03-21 23:27:11.577] [INFO] server - express loaded
[2015-03-21 23:27:11.697] [INFO] server - all routes are loaded
[2015-03-21 23:27:11.758] [INFO] server - http server started
[2015-03-21 23:27:11.758] [INFO] server - Listening to port 20050
[2015-03-21 23:27:19.850] [INFO] server - Route Sub System: MASTER
Method: GET
URL:/master/search/invoice/by/pending/undefined
[2015-03-21 23:27:20.859] [INFO] server - Route Sub System: MASTER
Method: GET
URL:/master/search/invoice/by/pending/undefined
[2015-03-21 23:27:24.724] [INFO] server - Route Sub System: MASTER
Method: GET
URL:/master/retailer/list/undefined
[2015-03-21 23:27:24.737] [INFO] server - Route Sub System: MASTER
Method: GET
URL:/master/invoice/detail/by/id/schneider-seep-zyCZheXmB
[2015-03-21 23:27:24.742] [INFO] server - Route Sub System: MASTER
Method: GET
URL:/master/get/invoice/detail/by/user_id/2014-11-20T07:47:54.778Z/INV-TEST/1000
[2015-03-21 23:28:11.595] [INFO] server - express loaded
[2015-03-21 23:28:11.722] [INFO] server - all routes are loaded
[2015-03-21 23:28:11.782] [INFO] server - http server started
[2015-03-21 23:28:11.783] [INFO] server - Listening to port 20050
[2015-03-21 23:28:16.577] [INFO] server - Route Sub System: MASTER
Method: GET
URL:/master/search/invoice/by/pending/undefined
[2015-03-21 23:28:17.680] [INFO] server - Route Sub System: MASTER
Method: GET
URL:/master/search/invoice/by/pending/undefined
[2015-03-21 23:28:20.661] [INFO] server - Route Sub System: MASTER
Method: GET
URL:/master/retailer/list/undefined
[2015-03-21 23:28:20.673] [INFO] server - Route Sub System: MASTER
Method: GET
URL:/master/invoice/detail/by/id/schneider-seep-M1iWYxkBS
[2015-03-21 23:28:20.679] [INFO] server - Route Sub System: MASTER
Method: GET
URL:/master/get/invoice/detail/by/user_id/2015-02-02T00:00:00.000Z/454455/7500
[2015-03-21 23:28:32.717] [INFO] server - Route Sub System: MASTER
Method: GET
URL:/master/search/invoice/by/pending/undefined
[2015-03-21 23:28:33.734] [INFO] server - Route Sub System: MASTER
Method: GET
URL:/master/search/invoice/by/pending/undefined
[2015-03-21 23:28:45.005] [INFO] server - Route Sub System: MASTER
Method: GET
URL:/master/retailer/list/undefined
[2015-03-21 23:28:45.009] [INFO] server - Route Sub System: MASTER
Method: GET
URL:/master/invoice/detail/by/id/schneider-seep-zkzomltcS
[2015-03-21 23:28:45.014] [INFO] server - Route Sub System: MASTER
Method: GET
URL:/master/get/invoice/detail/by/user_id/2014-10-15T06:33:46.317Z/INDipTest/1000
[2015-03-21 23:29:01.485] [INFO] server - Route Sub System: MASTER
Method: GET
URL:/master/search/invoice/by/pending/undefined
[2015-03-21 23:29:02.955] [INFO] server - Route Sub System: MASTER
Method: GET
URL:/master/search/invoice/by/pending/undefined
[2015-03-21 23:29:05.803] [INFO] server - Route Sub System: MASTER
Method: GET
URL:/master/retailer/list/undefined
[2015-03-21 23:29:05.807] [INFO] server - Route Sub System: MASTER
Method: GET
URL:/master/invoice/detail/by/id/schneider-seep-zyCZheXmB
[2015-03-21 23:29:05.814] [INFO] server - Route Sub System: MASTER
Method: GET
URL:/master/get/invoice/detail/by/user_id/2014-11-20T07:47:54.778Z/INV-TEST/1000
[2015-03-21 23:31:04.007] [INFO] server - express loaded
[2015-03-21 23:31:04.133] [INFO] server - all routes are loaded
