{
    "env": "prod",
    "mongo_address":
        [
            {"env":"prod", "ip": "annectos.net"},
            {"env":"dev", "ip": "qa.annectos.net"}
        ],
    "mongo_user_id": "phxmongorw",
    "mongo_password": "annect0s_901",
    "db": "blaupunkt",
    "fetch_limit" :10,
    "mongo_poolsize" : 4,
    "mysql":
    {
        "address" : [
            {"env":"prod", "ip": "db.annectos.net"},
            {"env":"dev", "ip": "qa.annectos.net"}
        ],
        "db": "program_commerce",
        "user_id" : "annectos",
        "password" : "U1!zoyQ:p"
    },
    "logging_level" : "INFO",
    "port"  : 5000,
    "program_name"  : "program_commerce",
    "programs"      :  [
        {
            "code": "nrml",
            "name": "normal program",
            "start_date": "06/01/2014",
            "end_date": "12/31/2014",
            "active": 1
        },
        {
            "code": "spl1",
            "name": "independence day special",
            "start_date": "08/15/2014",
            "end_date": "09/15/2014",
            "active": 1
        }],


    "AWS":   {
        "key" : "AKIAJEKVUP2XVSXTZ4NQ",
        "secret" :"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",
        "upload_link_expiry_time" : 120,
        "download_link_expiry_time" : 1200,
        "upload_key" : "s",
        "bucket"     : "blaupunkt-stg"
    }



}
